$MeshFormat
2.2 0 8
$EndMeshFormat
$Nodes
962
1 -114.973 17.7835 -10.162
2 -114.973 -17.7835 10.162
3 -114.973 -17.7835 -10.162
4 -114.973 17.7835 10.162
5 -91.9596 -17.8471 -10.1983
6 -91.9596 -17.8471 10.1983
7 -91.9596 17.8471 10.1983
8 -91.9596 17.8471 -10.1983
9 86.9806 3.84748 -10.26
10 86.9806 -3.84748 10.26
11 86.9806 3.84748 10.26
12 86.9806 -3.84748 -10.26
13 7.33716 -14.0566 11.2452
14 7.33716 -14.0566 -11.2452
15 7.33716 14.0566 -11.2452
16 7.33716 14.0566 11.2452
17 26.9853 12.251 -10.8898
18 26.9853 12.251 10.8898
19 26.9853 -12.251 10.8898
20 26.9853 -12.251 -10.8898
21 81.9758 5.13876 10.2775
22 81.9758 5.13876 -10.2775
23 65.9506 7.76506 -10.3534
24 55.4171 9.12533 10.4289
25 55.4171 9.12533 -10.4289
26 65.9506 7.76506 10.3534
27 81.9758 -5.13876 -10.2775
28 81.9758 -5.13876 10.2775
29 74.9671 -6.44152 -10.3064
30 74.9671 -6.44152 10.3064
31 42.3264 -10.5763 10.5763
32 42.3264 -10.5763 -10.5763
33 55.4171 -9.12533 -10.4289
34 55.4171 -9.12533 10.4289
35 74.9671 6.44152 10.3064
36 74.9671 6.44152 -10.3064
37 65.9506 -7.76506 -10.3534
38 65.9506 -7.76506 10.3534
39 42.3264 10.5763 10.5763
40 42.3264 10.5763 -10.5763
41 -42.3112 -15.9518 -10.7218
42 -103.466 -17.8153 -10.1802
43 -53.818 -15.92 -10.7036
44 -53.818 -15.92 10.7036
45 -103.466 -17.8153 10.1802
46 -42.3112 -15.9518 10.7218
47 -53.818 15.92 -10.7036
48 -103.466 17.8153 -10.1802
49 -42.3112 15.9518 -10.7218
50 44.6565 9.59766 -10.7614
51 84.4782 4.49312 -10.2687
52 47.1589 8.95202 -10.7526
53 41.1521 10.249 -10.7758
54 78.4714 5.79014 -10.292
55 17.1612 13.1538 -11.0675
56 50.9762 9.34628 -10.5981
57 -42.3112 15.9518 10.7218
58 -103.466 17.8153 10.1802
59 -53.818 15.92 10.7036
60 50.9762 -9.34628 -10.5981
61 17.1612 -13.1538 -11.0675
62 41.1521 -10.249 -10.7758
63 44.6565 -9.59766 10.7614
64 84.4782 -4.49312 10.2687
65 47.1589 -8.95202 10.7526
66 78.4714 -5.79014 10.292
67 41.1521 -10.249 10.7758
68 34.6559 -11.4137 -10.7331
69 41.2012 -10.6882 -10.6594
70 48.8717 -9.85081 -10.5026
71 50.9762 -9.34628 10.5981
72 17.1612 -13.1538 11.0675
73 44.6565 9.59766 10.7614
74 47.1589 8.95202 10.7526
75 84.4782 4.49312 10.2687
76 60.6838 8.4452 10.3912
77 41.2012 10.6882 10.6594
78 46.468 10.0081 10.6216
79 46.468 10.0081 -10.6216
80 41.2012 10.6882 -10.6594
81 60.6838 8.4452 -10.3912
82 70.4588 7.10329 -10.3299
83 44.6565 -9.59766 -10.7614
84 47.1589 -8.95202 -10.7526
85 84.4782 -4.49312 -10.2687
86 78.4714 -5.79014 -10.292
87 46.468 -10.0081 10.6216
88 41.2012 -10.6882 10.6594
89 60.6838 -8.4452 10.3912
90 70.4588 -7.10329 10.3299
91 34.6559 -11.4137 10.7331
92 48.8717 -9.85081 10.5026
93 78.4714 5.79014 10.292
94 41.1521 10.249 10.7758
95 50.9762 9.34628 10.5981
96 17.1612 13.1538 11.0675
97 70.4588 7.10329 10.3299
98 34.6559 11.4137 -10.7331
99 48.8717 9.85081 -10.5026
100 46.468 -10.0081 -10.6216
101 60.6838 -8.4452 -10.3912
102 70.4588 -7.10329 -10.3299
103 48.8717 9.85081 10.5026
104 34.6559 11.4137 10.7331
105 -114.973 0 0
106 -114.973 0 -10.162
107 -114.973 -17.7835 0
108 -114.973 0 10.162
109 -114.973 17.7835 0
110 -103.466 -17.8153 -0.0181693
111 -91.9596 -17.8471 0
112 -103.466 17.8153 0.0181693
113 -91.9596 17.8471 0
114 86.9806 0 0
115 86.9806 3.84748 0
116 86.9806 0 10.26
117 86.9806 -3.84748 0
118 86.9806 0 -10.26
119 -42.3112 -15.9518 0.523456
120 7.33716 -14.0566 0
121 47.1589 5.10454 -10.7526
122 7.33716 0 -11.2452
123 -53.818 -1.86347 -10.7036
124 17.1612 13.1538 0.177713
125 7.33716 14.0566 0
126 26.9853 12.251 0
127 -42.3112 15.9518 0.523456
128 -53.818 -1.86347 10.7036
129 7.33716 0 11.2452
130 47.1589 5.10454 10.7526
131 17.1612 -13.1538 -0.177713
132 26.9853 -12.251 0
133 84.4782 4.49312 0.00878771
134 81.9758 5.13876 0
135 60.6838 8.4452 0.0377642
136 55.4171 9.12533 0
137 65.9506 7.76506 0
138 84.4782 -4.49312 -0.00878771
139 81.9758 -5.13876 0
140 78.4714 -5.79014 0.0144541
141 74.9671 -6.44152 0
142 42.3264 -10.5763 0
143 48.8717 -9.85081 0.0736735
144 55.4171 -9.12533 0
145 34.6559 -11.4137 -0.156761
146 70.4588 7.10329 -0.0234913
147 74.9671 6.44152 0
148 78.4714 5.79014 0.0144541
149 60.6838 -8.4452 0.0377642
150 65.9506 -7.76506 0
151 70.4588 -7.10329 -0.0234913
152 34.6559 11.4137 -0.156761
153 42.3264 10.5763 0
154 48.8717 9.85081 0.0736735
155 -84.3956 -16.8518 10.4328
156 27.248 -4.47601 10.9989
157 -23.2404 6.09654 -10.9744
158 67.0698 4.47601 10.5063
159 67.0698 2.55227 10.5063
160 27.248 -4.47601 -10.9989
161 -67.1354 16.8994 5.36089
162 -23.2404 14.9883 -10.9744
163 63.3161 7.36821 10.5195
164 27.248 11.5043 10.9989
165 27.248 -11.5043 10.9989
166 27.248 -11.5043 -10.9989
167 -67.1354 -16.8994 -10.4601
168 -67.1354 -16.8994 0.261728
169 27.248 9.58054 10.9989
170 67.0698 4.47601 -10.5063
171 -84.3956 -9.82347 -10.4328
172 63.3161 -7.36821 -10.5195
173 -17.487 15.0042 -5.36089
174 -84.3956 -9.82347 10.4328
175 -84.3956 -16.8518 -10.4328
176 59.8118 -8.01959 -10.5339
177 -67.1354 -16.8994 10.4601
178 -17.487 15.0042 0.261728
179 -17.487 15.0042 -10.9835
180 -67.1354 -16.8994 -4.83744
181 -67.1354 16.8994 10.4601
182 -23.2404 6.09654 10.9744
183 67.0698 -6.39975 -10.5063
184 25.9968 -11.8271 11.0033
185 67.0698 0.628527 10.5063
186 27.248 9.58054 -10.9989
187 -17.487 -15.0042 5.88435
188 64.5673 -7.04539 -10.5151
189 64.5673 7.04539 10.5151
190 63.3161 7.36821 -10.5195
191 -67.1354 16.8994 0.261728
192 -84.3956 -0.931733 10.4328
193 -84.3956 16.8518 -10.4328
194 -78.6422 16.8676 -10.4419
195 -72.8888 16.8835 -10.451
196 -23.2404 -0.931733 10.9744
197 65.8186 -6.72257 10.5107
198 64.5673 -7.04539 10.5151
199 -23.2404 -14.9883 -10.9744
200 -17.487 -15.0042 0.261728
201 65.8186 -6.72257 -10.5107
202 -17.487 15.0042 10.9835
203 65.8186 6.72257 -10.5107
204 -78.6422 -16.8676 10.4419
205 -67.1354 16.8994 -10.4601
206 -84.3956 7.96001 10.4328
207 25.9968 -11.8271 -11.0033
208 25.9968 11.8271 11.0033
209 -67.1354 -16.8994 5.36089
210 64.5673 7.04539 -10.5151
211 59.8118 -8.01959 10.5339
212 -84.3956 -0.931733 -10.4328
213 -23.2404 -7.96001 10.9744
214 27.248 11.5043 -10.9989
215 -78.6422 -16.8676 -10.4419
216 65.8186 6.72257 10.5107
217 -78.6422 16.8676 10.4419
218 -23.2404 -0.931733 -10.9744
219 59.8118 8.01959 -10.5339
220 -72.8888 -16.8835 10.451
221 67.0698 0.628527 -10.5063
222 -17.487 -15.0042 10.9835
223 59.8118 8.01959 10.5339
224 27.248 2.55227 10.9989
225 -72.8888 -16.8835 -10.451
226 -72.8888 16.8835 10.451
227 27.248 2.55227 -10.9989
228 -23.2404 14.9883 10.9744
229 63.3161 -7.36821 10.5195
230 -23.2404 -7.96001 -10.9744
231 -17.487 -15.0042 -5.36089
232 67.0698 2.55227 -10.5063
233 67.0698 6.39975 10.5063
234 -23.2404 -14.9883 10.9744
235 -17.487 -15.0042 -10.9835
236 -17.487 15.0042 5.88435
237 67.0698 -6.39975 10.5063
238 -84.3956 7.96001 -10.4328
239 -84.3956 16.8518 10.4328
240 -67.1354 16.8994 -4.83744
241 67.0698 6.39975 -10.5063
242 25.9968 11.8271 -11.0033
243 -5.07494 -14.5304 -11.1144
244 -20.3637 -14.9962 -10.979
245 -7.95163 -14.5224 -11.1098
246 -38.5292 -15.4542 -10.839
247 -32.7758 -15.47 -10.8481
248 -48.0646 -15.9359 -10.7127
249 -29.8991 -15.478 -10.8526
250 -54.7233 -16.4256 -10.5909
251 -70.0121 -16.8915 -10.4555
252 -57.6 -16.4177 -10.5864
253 -88.1776 -17.3494 -10.3156
254 -82.4242 -17.3653 -10.3247
255 -97.713 -17.8312 -10.1892
256 -79.5475 -17.3733 -10.3292
257 -66.2301 -16.3938 -10.5728
258 -81.5189 -16.8597 -10.4373
259 -69.1068 -16.3859 -10.5682
260 -99.6844 -17.3176 -10.2974
261 -93.931 -17.3335 -10.3065
262 -109.22 -17.7994 -10.1711
263 -91.0543 -17.3415 -10.311
264 -75.7655 -16.8756 -10.4464
265 -63.3534 -16.4018 -10.5773
266 -7.95163 -14.5224 11.1098
267 -20.3637 -14.9962 10.979
268 -5.07494 -14.5304 11.1144
269 -48.0646 -15.9359 10.7127
270 -32.7758 -15.47 10.8481
271 -38.5292 -15.4542 10.839
272 -29.8991 -15.478 10.8526
273 -69.1068 -16.3859 10.5682
274 -81.5189 -16.8597 10.4373
275 -66.2301 -16.3938 10.5728
276 -109.22 -17.7994 10.1711
277 -93.931 -17.3335 10.3065
278 -99.6844 -17.3176 10.2974
279 -91.0543 -17.3415 10.311
280 -57.6 -16.4177 10.5864
281 -70.0121 -16.8915 10.4555
282 -54.7233 -16.4256 10.5909
283 -97.713 -17.8312 10.1892
284 -82.4242 -17.3653 10.3247
285 -88.1776 -17.3494 10.3156
286 -79.5475 -17.3733 10.3292
287 -75.7655 -16.8756 10.4464
288 -63.3534 -16.4018 10.5773
289 -7.95163 14.5224 -11.1098
290 -20.3637 14.9962 -10.979
291 -5.07494 14.5304 -11.1144
292 -48.0646 15.9359 -10.7127
293 -32.7758 15.47 -10.8481
294 -38.5292 15.4542 -10.839
295 -29.8991 15.478 -10.8526
296 -69.1068 16.3859 -10.5682
297 -81.5189 16.8597 -10.4373
298 -66.2301 16.3938 -10.5728
299 -109.22 17.7994 -10.1711
300 -93.931 17.3335 -10.3065
301 -99.6844 17.3176 -10.2974
302 -91.0543 17.3415 -10.311
303 -57.6 16.4177 -10.5864
304 -70.0121 16.8915 -10.4555
305 -54.7233 16.4256 -10.5909
306 -97.713 17.8312 -10.1892
307 -82.4242 17.3653 -10.3247
308 -88.1776 17.3494 -10.3156
309 -79.5475 17.3733 -10.3292
310 -75.7655 16.8756 -10.4464
311 -63.3534 16.4018 -10.5773
312 16.667 12.9418 -11.1243
313 26.6224 11.6657 -11.0011
314 17.2926 12.7804 -11.1221
315 37.2035 10.2282 -10.8758
316 35.9523 10.551 -10.8802
317 45.9077 9.27484 -10.757
318 35.3266 10.7124 -10.8823
319 53.9863 8.48293 -10.6404
320 63.9417 7.2068 -10.5173
321 54.6119 8.32152 -10.6382
322 74.5228 5.76926 -10.3919
323 73.2716 6.09208 -10.3963
324 83.227 4.81594 -10.2731
325 72.646 6.25349 -10.3985
326 56.4887 7.83729 -10.6316
327 66.4442 6.56116 -10.5085
328 57.1143 7.67588 -10.6294
329 77.0252 5.12362 -10.3831
330 75.774 5.44644 -10.3875
331 85.7294 4.1703 -10.2643
332 75.1484 5.60785 -10.3897
333 65.1929 6.88398 -10.5129
334 55.8631 7.9987 -10.6338
335 70.8938 6.57918 -10.4057
336 80.2236 5.46445 -10.2848
337 61.564 7.6939 -10.5267
338 24.2446 12.1528 -11.0105
339 33.5745 11.0381 -10.8896
340 42.9043 9.92335 -10.7686
341 69.1416 6.90487 -10.4129
342 67.3894 7.23056 -10.4202
343 76.7193 6.11583 -10.2992
344 58.0596 8.34528 -10.5411
345 50.4819 9.13431 -10.6549
346 52.2341 8.80862 -10.6476
347 12.2492 13.6052 -11.1564
348 29.1567 11.7014 -10.9217
349 38.9808 10.7987 -10.744
350 34.0687 11.25 -10.8328
351 22.0733 12.7024 -10.9787
352 46.0642 9.79766 -10.687
353 62.9716 7.8939 -10.4523
354 -5.07494 14.5304 11.1144
355 -20.3637 14.9962 10.979
356 -7.95163 14.5224 11.1098
357 -38.5292 15.4542 10.839
358 -32.7758 15.47 10.8481
359 -48.0646 15.9359 10.7127
360 -29.8991 15.478 10.8526
361 -54.7233 16.4256 10.5909
362 -70.0121 16.8915 10.4555
363 -57.6 16.4177 10.5864
364 -88.1776 17.3494 10.3156
365 -82.4242 17.3653 10.3247
366 -97.713 17.8312 10.1892
367 -79.5475 17.3733 10.3292
368 -66.2301 16.3938 10.5728
369 -81.5189 16.8597 10.4373
370 -69.1068 16.3859 10.5682
371 -99.6844 17.3176 10.2974
372 -93.931 17.3335 10.3065
373 -109.22 17.7994 10.1711
374 -91.0543 17.3415 10.311
375 -75.7655 16.8756 10.4464
376 -63.3534 16.4018 10.5773
377 62.9716 -7.8939 -10.4523
378 46.0642 -9.79766 -10.687
379 58.0596 -8.34528 -10.5411
380 22.0733 -12.7024 -10.9787
381 34.0687 -11.25 -10.8328
382 38.9808 -10.7987 -10.744
383 24.2446 -12.1528 -11.0105
384 29.1567 -11.7014 -10.9217
385 12.2492 -13.6052 -11.1564
386 16.667 -12.9418 11.1243
387 26.6224 -11.6657 11.0011
388 17.2926 -12.7804 11.1221
389 37.2035 -10.2282 10.8758
390 35.9523 -10.551 10.8802
391 45.9077 -9.27484 10.757
392 35.3266 -10.7124 10.8823
393 53.9863 -8.48293 10.6404
394 63.9417 -7.2068 10.5173
395 54.6119 -8.32152 10.6382
396 74.5228 -5.76926 10.3919
397 73.2716 -6.09208 10.3963
398 83.227 -4.81594 10.2731
399 72.646 -6.25349 10.3985
400 56.4887 -7.83729 10.6316
401 66.4442 -6.56116 10.5085
402 57.1143 -7.67588 10.6294
403 77.0252 -5.12362 10.3831
404 75.774 -5.44644 10.3875
405 85.7294 -4.1703 10.2643
406 75.1484 -5.60785 10.3897
407 65.1929 -6.88398 10.5129
408 55.8631 -7.9987 10.6338
409 69.1416 -6.90487 10.4129
410 67.3894 -7.23056 10.4202
411 76.7193 -6.11583 10.2992
412 58.0596 -8.34528 10.5411
413 50.4819 -9.13431 10.6549
414 70.8938 -6.57918 10.4057
415 80.2236 -5.46445 10.2848
416 61.564 -7.6939 10.5267
417 24.2446 -12.1528 11.0105
418 33.5745 -11.0381 10.8896
419 42.9043 -9.92335 10.7686
420 52.2341 -8.80862 10.6476
421 38.4911 -10.995 -10.6547
422 41.7638 -10.6322 -10.6178
423 45.5991 -10.2136 -10.5395
424 34.0932 -11.4696 -10.7746
425 37.9285 -11.0509 -10.6962
426 30.8206 -11.8324 -10.8114
427 52.1444 -9.48807 -10.4658
428 45.0365 -10.2695 -10.581
429 48.3091 -9.90676 -10.5442
430 38.9808 -10.7987 10.744
431 34.0687 -11.25 10.8328
432 22.0733 -12.7024 10.9787
433 46.0642 -9.79766 10.687
434 62.9716 -7.8939 10.4523
435 12.2492 -13.6052 11.1564
436 29.1567 -11.7014 10.9217
437 54.6119 8.32152 10.6382
438 63.9417 7.2068 10.5173
439 53.9863 8.48293 10.6404
440 83.227 4.81594 10.2731
441 73.2716 6.09208 10.3963
442 74.5228 5.76926 10.3919
443 72.646 6.25349 10.3985
444 17.2926 12.7804 11.1221
445 26.6224 11.6657 11.0011
446 16.667 12.9418 11.1243
447 45.9077 9.27484 10.757
448 35.9523 10.551 10.8802
449 37.2035 10.2282 10.8758
450 35.3266 10.7124 10.8823
451 57.1143 7.67588 10.6294
452 66.4442 6.56116 10.5085
453 56.4887 7.83729 10.6316
454 85.7294 4.1703 10.2643
455 75.774 5.44644 10.3875
456 77.0252 5.12362 10.3831
457 75.1484 5.60785 10.3897
458 65.1929 6.88398 10.5129
459 55.8631 7.9987 10.6338
460 63.3172 8.10513 10.3723
461 53.5759 9.22662 10.5064
462 56.2093 8.88656 10.4875
463 48.3091 9.90676 10.5442
464 50.9425 9.56669 10.5253
465 58.0504 8.78526 10.4101
466 36.7266 11.1295 10.7557
467 43.8346 10.3481 10.6405
468 34.0932 11.4696 10.7746
469 56.2093 8.88656 -10.4875
470 53.5759 9.22662 -10.5064
471 63.3172 8.10513 -10.3723
472 34.0932 11.4696 -10.7746
473 43.8346 10.3481 -10.6405
474 36.7266 11.1295 -10.7557
475 58.0504 8.78526 -10.4101
476 50.9425 9.56669 -10.5253
477 48.3091 9.90676 -10.5442
478 48.7221 9.67717 -10.6099
479 68.2047 7.43418 -10.3417
480 58.4634 8.55567 -10.4758
481 60.7175 8.22479 -10.464
482 72.713 6.77241 -10.3182
483 54.6119 -8.32152 -10.6382
484 63.9417 -7.2068 -10.5173
485 53.9863 -8.48293 -10.6404
486 83.227 -4.81594 -10.2731
487 73.2716 -6.09208 -10.3963
488 74.5228 -5.76926 -10.3919
489 72.646 -6.25349 -10.3985
490 17.2926 -12.7804 -11.1221
491 26.6224 -11.6657 -11.0011
492 16.667 -12.9418 -11.1243
493 45.9077 -9.27484 -10.757
494 35.9523 -10.551 -10.8802
495 37.2035 -10.2282 -10.8758
496 35.3266 -10.7124 -10.8823
497 57.1143 -7.67588 -10.6294
498 66.4442 -6.56116 -10.5085
499 56.4887 -7.83729 -10.6316
500 85.7294 -4.1703 -10.2643
501 75.774 -5.44644 -10.3875
502 77.0252 -5.12362 -10.3831
503 75.1484 -5.60785 -10.3897
504 65.1929 -6.88398 -10.5129
505 55.8631 -7.9987 -10.6338
506 80.2236 -5.46445 -10.2848
507 70.8938 -6.57918 -10.4057
508 61.564 -7.6939 -10.5267
509 50.4819 -9.13431 -10.6549
510 67.3894 -7.23056 -10.4202
511 69.1416 -6.90487 -10.4129
512 76.7193 -6.11583 -10.2992
513 33.5745 -11.0381 -10.8896
514 42.9043 -9.92335 -10.7686
515 52.2341 -8.80862 -10.6476
516 56.2093 -8.88656 10.4875
517 53.5759 -9.22662 10.5064
518 63.3172 -8.10513 10.3723
519 34.0932 -11.4696 10.7746
520 43.8346 -10.3481 10.6405
521 36.7266 -11.1295 10.7557
522 58.0504 -8.78526 10.4101
523 50.9425 -9.56669 10.5253
524 48.3091 -9.90676 10.5442
525 48.7221 -9.67717 10.6099
526 68.2047 -7.43418 10.3417
527 58.4634 -8.55567 10.4758
528 60.7175 -8.22479 10.464
529 72.713 -6.77241 10.3182
530 30.8206 -11.8324 10.8114
531 37.9285 -11.0509 10.6962
532 45.5991 -10.2136 10.5395
533 41.7638 -10.6322 10.6178
534 38.4911 -10.995 10.6547
535 45.0365 -10.2695 10.581
536 52.1444 -9.48807 10.4658
537 80.2236 5.46445 10.2848
538 70.8938 6.57918 10.4057
539 61.564 7.6939 10.5267
540 50.4819 9.13431 10.6549
541 67.3894 7.23056 10.4202
542 58.0596 8.34528 10.5411
543 69.1416 6.90487 10.4129
544 76.7193 6.11583 10.2992
545 33.5745 11.0381 10.8896
546 24.2446 12.1528 11.0105
547 42.9043 9.92335 10.7686
548 52.2341 8.80862 10.6476
549 29.1567 11.7014 10.9217
550 12.2492 13.6052 11.1564
551 62.9716 7.8939 10.4523
552 46.0642 9.79766 10.687
553 22.0733 12.7024 10.9787
554 34.0687 11.25 10.8328
555 38.9808 10.7987 10.744
556 72.713 6.77241 10.3182
557 60.7175 8.22479 10.464
558 58.4634 8.55567 10.4758
559 68.2047 7.43418 10.3417
560 48.7221 9.67717 10.6099
561 30.8206 11.8324 -10.8114
562 37.9285 11.0509 -10.6962
563 45.5991 10.2136 -10.5395
564 41.7638 10.6322 -10.6178
565 38.4911 10.995 -10.6547
566 45.0365 10.2695 -10.581
567 52.1444 9.48807 -10.4658
568 36.7266 -11.1295 -10.7557
569 43.8346 -10.3481 -10.6405
570 63.3172 -8.10513 -10.3723
571 53.5759 -9.22662 -10.5064
572 56.2093 -8.88656 -10.4875
573 50.9425 -9.56669 -10.5253
574 58.0504 -8.78526 -10.4101
575 72.713 -6.77241 -10.3182
576 60.7175 -8.22479 -10.464
577 58.4634 -8.55567 -10.4758
578 68.2047 -7.43418 -10.3417
579 48.7221 -9.67717 -10.6099
580 52.1444 9.48807 10.4658
581 45.0365 10.2695 10.581
582 38.4911 10.995 10.6547
583 41.7638 10.6322 10.6178
584 45.5991 10.2136 10.5395
585 37.9285 11.0509 10.6962
586 30.8206 11.8324 10.8114
587 -114.973 -8.89174 5.081
588 -114.973 -8.89174 0
589 -114.973 -17.7835 5.081
590 -114.973 8.89174 -10.162
591 -114.973 0 -5.081
592 -114.973 8.89174 -5.081
593 -114.973 -17.7835 -5.081
594 -114.973 -8.89174 -5.081
595 -114.973 -8.89174 -10.162
596 -114.973 8.89174 0
597 -114.973 17.7835 -5.081
598 -114.973 -8.89174 10.162
599 -114.973 0 5.081
600 -114.973 17.7835 5.081
601 -114.973 8.89174 5.081
602 -114.973 8.89174 10.162
603 -97.713 -17.8312 -5.10825
604 -103.466 -17.8153 -5.09916
605 -109.22 -17.7994 -0.00908464
606 -109.22 -17.7994 5.07191
607 -109.22 -17.7994 -5.09008
608 -103.466 -17.8153 5.081
609 -91.9596 -17.8471 -5.09916
610 -97.713 -17.8312 -0.00908464
611 -97.713 -17.8312 5.09008
612 -91.9596 -17.8471 5.09916
613 -97.713 17.8312 5.10825
614 -103.466 17.8153 5.09916
615 -109.22 17.7994 0.00908464
616 -109.22 17.7994 -5.07191
617 -109.22 17.7994 5.09008
618 -103.466 17.8153 -5.081
619 -91.9596 17.8471 5.09916
620 -97.713 17.8312 0.00908464
621 -97.713 17.8312 -5.09008
622 -91.9596 17.8471 -5.09916
623 86.9806 -1.92374 5.12998
624 86.9806 0 5.12998
625 86.9806 -1.92374 10.26
626 86.9806 3.84748 -5.12998
627 86.9806 1.92374 0
628 86.9806 1.92374 -5.12998
629 86.9806 1.92374 10.26
630 86.9806 1.92374 5.12998
631 86.9806 3.84748 5.12998
632 86.9806 0 -5.12998
633 86.9806 1.92374 -10.26
634 86.9806 -3.84748 5.12998
635 86.9806 -1.92374 0
636 86.9806 -1.92374 -10.26
637 86.9806 -1.92374 -5.12998
638 86.9806 -3.84748 -5.12998
639 -54.7233 -16.4256 0.392592
640 -67.1354 -16.8994 -2.28785
641 -54.7233 -16.4256 -2.15699
642 -79.5475 -17.3733 -7.51788
643 -79.5475 -17.3733 -2.41872
644 -79.5475 -17.3733 0.130864
645 -17.487 -15.0042 8.43393
646 -5.07494 -14.5304 8.5648
647 -29.8991 -15.478 3.2039
648 -29.8991 -15.478 8.30307
649 -42.3112 -15.9518 5.62262
650 -67.1354 -16.8994 7.91048
651 -54.7233 -16.4256 8.04134
652 -79.5475 -17.3733 2.68045
653 -79.5475 -17.3733 7.77961
654 -67.1354 -16.8994 2.81131
655 -54.7233 -16.4256 2.94217
656 -17.487 -15.0042 -8.1722
657 -29.8991 -15.478 -8.04134
658 -5.07494 -14.5304 -2.68045
659 -5.07494 -14.5304 -8.30307
660 7.33716 -14.0566 -5.62262
661 -29.8991 -15.478 0.392592
662 -17.487 -15.0042 3.07304
663 -5.07494 -14.5304 2.94217
664 7.33716 -14.0566 5.62262
665 -5.07494 -14.5304 0.130864
666 -67.1354 -16.8994 -7.64875
667 -54.7233 -16.4256 -7.77961
668 -42.3112 -15.9518 -5.09916
669 -17.487 -15.0042 -2.54958
670 -29.8991 -15.478 -2.41872
671 27.248 10.5424 -10.9989
672 17.2926 11.8185 -11.1221
673 37.2035 7.34254 -10.8758
674 37.2035 9.26628 -10.8758
675 47.1589 7.02828 -10.7526
676 67.0698 5.43788 -10.5063
677 57.1143 6.71401 -10.6294
678 77.0252 2.238 -10.3831
679 77.0252 4.16175 -10.3831
680 57.1143 3.8284 -10.6294
681 67.0698 1.5904 -10.5063
682 57.1143 2.86653 -10.6294
683 77.0252 -1.60948 -10.3831
684 77.0252 0.314263 -10.3831
685 77.0252 1.27613 -10.3831
686 67.0698 3.51414 -10.5063
687 57.1143 4.79027 -10.6294
688 27.248 -7.99015 -10.9989
689 37.2035 -6.71401 -10.8758
690 17.2926 -2.238 -11.1221
691 17.2926 -9.26628 -11.1221
692 7.33716 -7.02828 -11.2452
693 37.2035 3.8284 -10.8758
694 27.248 6.06641 -10.9989
695 17.2926 4.79027 -11.1221
696 7.33716 7.02828 -11.2452
697 17.2926 1.27613 -11.1221
698 67.0698 -2.88561 -10.5063
699 57.1143 -4.16175 -10.6294
700 47.1589 -1.92374 -10.7526
701 27.248 -0.961871 -10.9989
702 37.2035 0.314263 -10.8758
703 -69.1068 11.94 -10.5682
704 -84.3956 12.4059 -10.4328
705 -99.6844 12.8717 -10.2974
706 -99.6844 3.98 -10.2974
707 -7.95163 10.0765 -11.1098
708 -23.2404 10.5424 -10.9744
709 -53.818 7.02828 -10.7036
710 -38.5292 11.0083 -10.839
711 -38.5292 2.11654 -10.839
712 -69.1068 -5.84347 -10.5682
713 -84.3956 -5.3776 -10.4328
714 -69.1068 -1.3976 -10.5682
715 -99.6844 -4.91174 -10.2974
716 -99.6844 -13.8035 -10.2974
717 -99.6844 -0.465866 -10.2974
718 -84.3956 3.51414 -10.4328
719 -69.1068 3.04827 -10.5682
720 -23.2404 2.58241 -10.9744
721 -38.5292 -1.3976 -10.839
722 -7.95163 3.04827 -11.1098
723 -7.95163 -0.465866 -11.1098
724 -38.5292 -11.94 -10.839
725 -23.2404 -11.4741 -10.9744
726 -7.95163 -11.0083 -11.1098
727 -7.95163 -3.98 -11.1098
728 -84.3956 -13.3376 -10.4328
729 -53.818 -8.89174 -10.7036
730 -69.1068 -12.8717 -10.5682
731 -23.2404 -4.44587 -10.9744
732 -38.5292 -4.91174 -10.839
733 12.2492 13.6052 5.71148
734 12.2492 13.6052 0.0888565
735 7.33716 14.0566 5.62262
736 17.1612 13.1538 -5.44491
737 22.0733 12.7024 -5.35605
738 7.33716 14.0566 -5.62262
739 12.2492 13.6052 -5.53376
740 22.0733 12.7024 0.0888565
741 26.9853 12.251 -5.44491
742 17.1612 13.1538 5.62262
743 26.9853 12.251 5.44491
744 22.0733 12.7024 5.53376
745 -54.7233 16.4256 8.04134
746 -67.1354 16.8994 7.91048
747 -79.5475 17.3733 7.77961
748 -79.5475 17.3733 2.68045
749 -5.07494 14.5304 8.5648
750 -17.487 15.0042 8.43393
751 -42.3112 15.9518 5.62262
752 -29.8991 15.478 8.30307
753 -29.8991 15.478 3.2039
754 -54.7233 16.4256 -2.15699
755 -67.1354 16.8994 -2.28785
756 -54.7233 16.4256 0.392592
757 -79.5475 17.3733 -2.41872
758 -79.5475 17.3733 -7.51788
759 -79.5475 17.3733 0.130864
760 -67.1354 16.8994 2.81131
761 -54.7233 16.4256 2.94217
762 -17.487 15.0042 3.07304
763 -29.8991 15.478 0.392592
764 -5.07494 14.5304 2.94217
765 -5.07494 14.5304 0.130864
766 -29.8991 15.478 -8.04134
767 -17.487 15.0042 -8.1722
768 -5.07494 14.5304 -8.30307
769 -5.07494 14.5304 -2.68045
770 -67.1354 16.8994 -7.64875
771 -42.3112 15.9518 -5.09916
772 -54.7233 16.4256 -7.77961
773 -17.487 15.0042 -2.54958
774 -29.8991 15.478 -2.41872
775 -69.1068 -1.3976 10.5682
776 -84.3956 -5.3776 10.4328
777 -69.1068 -5.84347 10.5682
778 -99.6844 -13.8035 10.2974
779 -99.6844 -4.91174 10.2974
780 -99.6844 -0.465866 10.2974
781 -23.2404 10.5424 10.9744
782 -7.95163 10.0765 11.1098
783 -38.5292 2.11654 10.839
784 -38.5292 11.0083 10.839
785 -53.818 7.02828 10.7036
786 -84.3956 12.4059 10.4328
787 -69.1068 11.94 10.5682
788 -99.6844 3.98 10.2974
789 -99.6844 12.8717 10.2974
790 -84.3956 3.51414 10.4328
791 -69.1068 3.04827 10.5682
792 -23.2404 -11.4741 10.9744
793 -38.5292 -11.94 10.839
794 -7.95163 -3.98 11.1098
795 -7.95163 -11.0083 11.1098
796 7.33716 -7.02828 11.2452
797 -38.5292 -1.3976 10.839
798 -23.2404 2.58241 10.9744
799 -7.95163 3.04827 11.1098
800 7.33716 7.02828 11.2452
801 -7.95163 -0.465866 11.1098
802 -84.3956 -13.3376 10.4328
803 -69.1068 -12.8717 10.5682
804 -53.818 -8.89174 10.7036
805 -23.2404 -4.44587 10.9744
806 -38.5292 -4.91174 10.839
807 17.2926 11.8185 11.1221
808 27.248 10.5424 10.9989
809 47.1589 7.02828 10.7526
810 37.2035 9.26628 10.8758
811 37.2035 7.34254 10.8758
812 57.1143 2.86653 10.6294
813 67.0698 1.5904 10.5063
814 57.1143 3.8284 10.6294
815 77.0252 0.314263 10.3831
816 77.0252 -1.60948 10.3831
817 77.0252 1.27613 10.3831
818 57.1143 6.71401 10.6294
819 67.0698 5.43788 10.5063
820 77.0252 4.16175 10.3831
821 77.0252 2.238 10.3831
822 67.0698 3.51414 10.5063
823 57.1143 4.79027 10.6294
824 27.248 6.06641 10.9989
825 37.2035 3.8284 10.8758
826 17.2926 4.79027 11.1221
827 17.2926 1.27613 11.1221
828 37.2035 -6.71401 10.8758
829 27.248 -7.99015 10.9989
830 17.2926 -9.26628 11.1221
831 17.2926 -2.238 11.1221
832 67.0698 -2.88561 10.5063
833 47.1589 -1.92374 10.7526
834 57.1143 -4.16175 10.6294
835 27.248 -0.961871 10.9989
836 37.2035 0.314263 10.8758
837 17.1612 -13.1538 5.44491
838 22.0733 -12.7024 5.35605
839 12.2492 -13.6052 5.53376
840 12.2492 -13.6052 -5.71148
841 12.2492 -13.6052 -0.0888565
842 26.9853 -12.251 -5.44491
843 22.0733 -12.7024 -5.53376
844 22.0733 -12.7024 -0.0888565
845 26.9853 -12.251 5.44491
846 17.1612 -13.1538 -5.62262
847 85.7294 4.1703 -5.12558
848 85.7294 4.1703 0.00439386
849 84.4782 4.49312 5.13876
850 83.227 4.81594 5.14316
851 85.7294 4.1703 5.13437
852 81.9758 5.13876 -5.13876
853 83.227 4.81594 -5.13437
854 83.227 4.81594 0.00439386
855 81.9758 5.13876 5.13876
856 84.4782 4.49312 -5.12998
857 58.0504 8.78526 5.23336
858 58.0504 8.78526 0.0188821
859 55.4171 9.12533 5.21447
860 60.6838 8.4452 -5.17671
861 63.3172 8.10513 -5.15783
862 55.4171 9.12533 -5.21447
863 58.0504 8.78526 -5.19559
864 63.3172 8.10513 0.0188821
865 65.9506 7.76506 -5.17671
866 60.6838 8.4452 5.21447
867 65.9506 7.76506 5.17671
868 63.3172 8.10513 5.19559
869 85.7294 -4.1703 5.12558
870 85.7294 -4.1703 -0.00439386
871 84.4782 -4.49312 -5.13876
872 83.227 -4.81594 -5.14316
873 85.7294 -4.1703 -5.13437
874 81.9758 -5.13876 5.13876
875 83.227 -4.81594 5.13437
876 83.227 -4.81594 -0.00439386
877 81.9758 -5.13876 -5.13876
878 84.4782 -4.49312 5.12998
879 76.7193 -6.11583 -5.14599
880 74.9671 -6.44152 -5.15322
881 80.2236 -5.46445 -5.13154
882 78.4714 -5.79014 -5.13876
883 74.9671 -6.44152 5.15322
884 76.7193 -6.11583 0.00722705
885 76.7193 -6.11583 5.16045
886 80.2236 -5.46445 0.00722705
887 80.2236 -5.46445 5.14599
888 78.4714 -5.79014 5.15322
889 42.3264 -10.5763 5.28815
890 45.5991 -10.2136 0.0368368
891 45.5991 -10.2136 5.32498
892 45.5991 -10.2136 -5.25131
893 42.3264 -10.5763 -5.28815
894 52.1444 -9.48807 -5.17764
895 48.8717 -9.85081 -5.21447
896 48.8717 -9.85081 5.28815
897 55.4171 -9.12533 -5.21447
898 52.1444 -9.48807 0.0368368
899 52.1444 -9.48807 5.25131
900 55.4171 -9.12533 5.21447
901 34.6559 -11.4137 5.28815
902 38.4911 -10.995 5.20977
903 30.8206 -11.8324 5.36653
904 30.8206 -11.8324 -5.52329
905 30.8206 -11.8324 -0.0783805
906 38.4911 -10.995 -5.36653
907 38.4911 -10.995 -0.0783805
908 34.6559 -11.4137 -5.44491
909 72.713 6.77241 5.14147
910 70.4588 7.10329 5.15322
911 68.2047 7.43418 -0.0117457
912 68.2047 7.43418 -5.18845
913 68.2047 7.43418 5.16496
914 70.4588 7.10329 -5.17671
915 74.9671 6.44152 5.15322
916 72.713 6.77241 -0.0117457
917 72.713 6.77241 -5.16496
918 74.9671 6.44152 -5.15322
919 78.4714 5.79014 5.15322
920 76.7193 6.11583 5.16045
921 80.2236 5.46445 5.14599
922 80.2236 5.46445 -5.13154
923 80.2236 5.46445 0.00722705
924 76.7193 6.11583 0.00722705
925 78.4714 5.79014 -5.13876
926 76.7193 6.11583 -5.14599
927 58.0504 -8.78526 -5.19559
928 63.3172 -8.10513 -5.15783
929 60.6838 -8.4452 -5.17671
930 58.0504 -8.78526 0.0188821
931 58.0504 -8.78526 5.23336
932 65.9506 -7.76506 -5.17671
933 63.3172 -8.10513 0.0188821
934 63.3172 -8.10513 5.19559
935 65.9506 -7.76506 5.17671
936 60.6838 -8.4452 5.21447
937 70.4588 -7.10329 -5.17671
938 68.2047 -7.43418 -5.18845
939 72.713 -6.77241 -5.16496
940 72.713 -6.77241 5.14147
941 72.713 -6.77241 -0.0117457
942 68.2047 -7.43418 5.16496
943 68.2047 -7.43418 -0.0117457
944 70.4588 -7.10329 5.15322
945 38.4911 10.995 5.20977
946 34.6559 11.4137 5.28815
947 30.8206 11.8324 -0.0783805
948 30.8206 11.8324 -5.52329
949 30.8206 11.8324 5.36653
950 42.3264 10.5763 5.28815
951 38.4911 10.995 -0.0783805
952 38.4911 10.995 -5.36653
953 42.3264 10.5763 -5.28815
954 34.6559 11.4137 -5.44491
955 48.8717 9.85081 5.28815
956 45.5991 10.2136 5.32498
957 52.1444 9.48807 5.25131
958 52.1444 9.48807 -5.17764
959 52.1444 9.48807 0.0368368
960 45.5991 10.2136 -5.25131
961 45.5991 10.2136 0.0368368
962 48.8717 9.85081 -5.21447
$EndNodes
$Elements
1920
1 2 0 14 243 245 
2 2 0 235 244 243 
3 2 0 199 245 244 
4 2 0 243 244 245 
5 2 0 43 246 248 
6 2 0 199 247 246 
7 2 0 41 248 247 
8 2 0 246 247 248 
9 2 0 235 249 244 
10 2 0 41 247 249 
11 2 0 199 244 247 
12 2 0 249 247 244 
13 2 0 41 250 252 
14 2 0 167 251 250 
15 2 0 225 252 251 
16 2 0 250 251 252 
17 2 0 42 253 255 
18 2 0 225 254 253 
19 2 0 5 255 254 
20 2 0 253 254 255 
21 2 0 167 256 251 
22 2 0 5 254 256 
23 2 0 225 251 254 
24 2 0 256 254 251 
25 2 0 43 257 259 
26 2 0 215 258 257 
27 2 0 175 259 258 
28 2 0 257 258 259 
29 2 0 3 260 262 
30 2 0 175 261 260 
31 2 0 42 262 261 
32 2 0 260 261 262 
33 2 0 215 263 258 
34 2 0 42 261 263 
35 2 0 175 258 261 
36 2 0 263 261 258 
37 2 0 42 263 253 
38 2 0 215 264 263 
39 2 0 225 253 264 
40 2 0 263 264 253 
41 2 0 41 252 248 
42 2 0 225 265 252 
43 2 0 43 248 265 
44 2 0 252 265 248 
45 2 0 215 257 264 
46 2 0 43 265 257 
47 2 0 225 264 265 
48 2 0 257 265 264 
49 2 0 13 266 268 
50 2 0 234 267 266 
51 2 0 222 268 267 
52 2 0 266 267 268 
53 2 0 44 269 271 
54 2 0 46 270 269 
55 2 0 234 271 270 
56 2 0 269 270 271 
57 2 0 222 267 272 
58 2 0 234 270 267 
59 2 0 46 272 270 
60 2 0 267 270 272 
61 2 0 44 273 275 
62 2 0 155 274 273 
63 2 0 204 275 274 
64 2 0 273 274 275 
65 2 0 2 276 278 
66 2 0 45 277 276 
67 2 0 155 278 277 
68 2 0 276 277 278 
69 2 0 204 274 279 
70 2 0 155 277 274 
71 2 0 45 279 277 
72 2 0 274 277 279 
73 2 0 46 280 282 
74 2 0 220 281 280 
75 2 0 177 282 281 
76 2 0 280 281 282 
77 2 0 45 283 285 
78 2 0 6 284 283 
79 2 0 220 285 284 
80 2 0 283 284 285 
81 2 0 177 281 286 
82 2 0 220 284 281 
83 2 0 6 286 284 
84 2 0 281 284 286 
85 2 0 45 285 279 
86 2 0 220 287 285 
87 2 0 204 279 287 
88 2 0 285 287 279 
89 2 0 46 269 280 
90 2 0 44 288 269 
91 2 0 220 280 288 
92 2 0 269 288 280 
93 2 0 204 287 275 
94 2 0 220 288 287 
95 2 0 44 275 288 
96 2 0 287 288 275 
97 2 0 15 289 291 
98 2 0 162 290 289 
99 2 0 179 291 290 
100 2 0 289 290 291 
101 2 0 47 292 294 
102 2 0 49 293 292 
103 2 0 162 294 293 
104 2 0 292 293 294 
105 2 0 179 290 295 
106 2 0 162 293 290 
107 2 0 49 295 293 
108 2 0 290 293 295 
109 2 0 47 296 298 
110 2 0 193 297 296 
111 2 0 194 298 297 
112 2 0 296 297 298 
113 2 0 1 299 301 
114 2 0 48 300 299 
115 2 0 193 301 300 
116 2 0 299 300 301 
117 2 0 194 297 302 
118 2 0 193 300 297 
119 2 0 48 302 300 
120 2 0 297 300 302 
121 2 0 49 303 305 
122 2 0 195 304 303 
123 2 0 205 305 304 
124 2 0 303 304 305 
125 2 0 48 306 308 
126 2 0 8 307 306 
127 2 0 195 308 307 
128 2 0 306 307 308 
129 2 0 205 304 309 
130 2 0 195 307 304 
131 2 0 8 309 307 
132 2 0 304 307 309 
133 2 0 48 308 302 
134 2 0 195 310 308 
135 2 0 194 302 310 
136 2 0 308 310 302 
137 2 0 49 292 303 
138 2 0 47 311 292 
139 2 0 195 303 311 
140 2 0 292 311 303 
141 2 0 194 310 298 
142 2 0 195 311 310 
143 2 0 47 298 311 
144 2 0 310 311 298 
145 2 0 15 312 314 
146 2 0 242 313 312 
147 2 0 214 314 313 
148 2 0 312 313 314 
149 2 0 52 315 317 
150 2 0 214 316 315 
151 2 0 50 317 316 
152 2 0 315 316 317 
153 2 0 242 318 313 
154 2 0 50 316 318 
155 2 0 214 313 316 
156 2 0 318 316 313 
157 2 0 50 319 321 
158 2 0 190 320 319 
159 2 0 210 321 320 
160 2 0 319 320 321 
161 2 0 51 322 324 
162 2 0 210 323 322 
163 2 0 22 324 323 
164 2 0 322 323 324 
165 2 0 190 325 320 
166 2 0 22 323 325 
167 2 0 210 320 323 
168 2 0 325 323 320 
169 2 0 52 326 328 
170 2 0 203 327 326 
171 2 0 241 328 327 
172 2 0 326 327 328 
173 2 0 9 329 331 
174 2 0 241 330 329 
175 2 0 51 331 330 
176 2 0 329 330 331 
177 2 0 203 332 327 
178 2 0 51 330 332 
179 2 0 241 327 330 
180 2 0 332 330 327 
181 2 0 51 332 322 
182 2 0 203 333 332 
183 2 0 210 322 333 
184 2 0 332 333 322 
185 2 0 50 321 317 
186 2 0 210 334 321 
187 2 0 52 317 334 
188 2 0 321 334 317 
189 2 0 203 326 333 
190 2 0 52 334 326 
191 2 0 210 333 334 
192 2 0 326 334 333 
193 2 0 22 325 336 
194 2 0 190 335 325 
195 2 0 54 336 335 
196 2 0 325 335 336 
197 2 0 50 337 319 
198 2 0 54 335 337 
199 2 0 190 319 335 
200 2 0 337 335 319 
201 2 0 15 338 312 
202 2 0 53 339 338 
203 2 0 242 312 339 
204 2 0 338 339 312 
205 2 0 242 339 318 
206 2 0 53 340 339 
207 2 0 50 318 340 
208 2 0 339 340 318 
209 2 0 54 341 343 
210 2 0 219 342 341 
211 2 0 36 343 342 
212 2 0 341 342 343 
213 2 0 53 344 345 
214 2 0 36 342 344 
215 2 0 219 345 342 
216 2 0 344 342 345 
217 2 0 53 345 340 
218 2 0 219 346 345 
219 2 0 50 340 346 
220 2 0 345 346 340 
221 2 0 54 337 341 
222 2 0 50 346 337 
223 2 0 219 341 346 
224 2 0 337 346 341 
225 2 0 15 347 338 
226 2 0 55 348 347 
227 2 0 53 338 348 
228 2 0 347 348 338 
229 2 0 17 349 351 
230 2 0 56 350 349 
231 2 0 55 351 350 
232 2 0 349 350 351 
233 2 0 36 344 353 
234 2 0 53 352 344 
235 2 0 56 353 352 
236 2 0 344 352 353 
237 2 0 55 350 348 
238 2 0 56 352 350 
239 2 0 53 348 352 
240 2 0 350 352 348 
241 2 0 16 354 356 
242 2 0 202 355 354 
243 2 0 228 356 355 
244 2 0 354 355 356 
245 2 0 59 357 359 
246 2 0 228 358 357 
247 2 0 57 359 358 
248 2 0 357 358 359 
249 2 0 202 360 355 
250 2 0 57 358 360 
251 2 0 228 355 358 
252 2 0 360 358 355 
253 2 0 57 361 363 
254 2 0 181 362 361 
255 2 0 226 363 362 
256 2 0 361 362 363 
257 2 0 58 364 366 
258 2 0 226 365 364 
259 2 0 7 366 365 
260 2 0 364 365 366 
261 2 0 181 367 362 
262 2 0 7 365 367 
263 2 0 226 362 365 
264 2 0 367 365 362 
265 2 0 59 368 370 
266 2 0 217 369 368 
267 2 0 239 370 369 
268 2 0 368 369 370 
269 2 0 4 371 373 
270 2 0 239 372 371 
271 2 0 58 373 372 
272 2 0 371 372 373 
273 2 0 217 374 369 
274 2 0 58 372 374 
275 2 0 239 369 372 
276 2 0 374 372 369 
277 2 0 58 374 364 
278 2 0 217 375 374 
279 2 0 226 364 375 
280 2 0 374 375 364 
281 2 0 57 363 359 
282 2 0 226 376 363 
283 2 0 59 359 376 
284 2 0 363 376 359 
285 2 0 217 368 375 
286 2 0 59 376 368 
287 2 0 226 375 376 
288 2 0 368 376 375 
289 2 0 29 377 379 
290 2 0 60 378 377 
291 2 0 62 379 378 
292 2 0 377 378 379 
293 2 0 20 380 382 
294 2 0 61 381 380 
295 2 0 60 382 381 
296 2 0 380 381 382 
297 2 0 14 383 385 
298 2 0 62 384 383 
299 2 0 61 385 384 
300 2 0 383 384 385 
301 2 0 60 381 378 
302 2 0 61 384 381 
303 2 0 62 378 384 
304 2 0 381 384 378 
305 2 0 13 386 388 
306 2 0 184 387 386 
307 2 0 165 388 387 
308 2 0 386 387 388 
309 2 0 65 389 391 
310 2 0 165 390 389 
311 2 0 63 391 390 
312 2 0 389 390 391 
313 2 0 184 392 387 
314 2 0 63 390 392 
315 2 0 165 387 390 
316 2 0 392 390 387 
317 2 0 63 393 395 
318 2 0 229 394 393 
319 2 0 198 395 394 
320 2 0 393 394 395 
321 2 0 64 396 398 
322 2 0 198 397 396 
323 2 0 28 398 397 
324 2 0 396 397 398 
325 2 0 229 399 394 
326 2 0 28 397 399 
327 2 0 198 394 397 
328 2 0 399 397 394 
329 2 0 65 400 402 
330 2 0 197 401 400 
331 2 0 237 402 401 
332 2 0 400 401 402 
333 2 0 10 403 405 
334 2 0 237 404 403 
335 2 0 64 405 404 
336 2 0 403 404 405 
337 2 0 197 406 401 
338 2 0 64 404 406 
339 2 0 237 401 404 
340 2 0 406 404 401 
341 2 0 64 406 396 
342 2 0 197 407 406 
343 2 0 198 396 407 
344 2 0 406 407 396 
345 2 0 63 395 391 
346 2 0 198 408 395 
347 2 0 65 391 408 
348 2 0 395 408 391 
349 2 0 197 400 407 
350 2 0 65 408 400 
351 2 0 198 407 408 
352 2 0 400 408 407 
353 2 0 66 409 411 
354 2 0 211 410 409 
355 2 0 30 411 410 
356 2 0 409 410 411 
357 2 0 67 412 413 
358 2 0 30 410 412 
359 2 0 211 413 410 
360 2 0 412 410 413 
361 2 0 28 399 415 
362 2 0 229 414 399 
363 2 0 66 415 414 
364 2 0 399 414 415 
365 2 0 63 416 393 
366 2 0 66 414 416 
367 2 0 229 393 414 
368 2 0 416 414 393 
369 2 0 13 417 386 
370 2 0 67 418 417 
371 2 0 184 386 418 
372 2 0 417 418 386 
373 2 0 184 418 392 
374 2 0 67 419 418 
375 2 0 63 392 419 
376 2 0 418 419 392 
377 2 0 66 416 409 
378 2 0 63 420 416 
379 2 0 211 409 420 
380 2 0 416 420 409 
381 2 0 211 420 413 
382 2 0 63 419 420 
383 2 0 67 413 419 
384 2 0 420 419 413 
385 2 0 32 421 423 
386 2 0 68 422 421 
387 2 0 70 423 422 
388 2 0 421 422 423 
389 2 0 20 424 426 
390 2 0 69 425 424 
391 2 0 68 426 425 
392 2 0 424 425 426 
393 2 0 33 427 429 
394 2 0 70 428 427 
395 2 0 69 429 428 
396 2 0 427 428 429 
397 2 0 68 425 422 
398 2 0 69 428 425 
399 2 0 70 422 428 
400 2 0 425 428 422 
401 2 0 19 430 432 
402 2 0 71 431 430 
403 2 0 72 432 431 
404 2 0 430 431 432 
405 2 0 30 412 434 
406 2 0 67 433 412 
407 2 0 71 434 433 
408 2 0 412 433 434 
409 2 0 13 435 417 
410 2 0 72 436 435 
411 2 0 67 417 436 
412 2 0 435 436 417 
413 2 0 71 433 431 
414 2 0 67 436 433 
415 2 0 72 431 436 
416 2 0 433 436 431 
417 2 0 73 437 439 
418 2 0 189 438 437 
419 2 0 163 439 438 
420 2 0 437 438 439 
421 2 0 75 440 442 
422 2 0 21 441 440 
423 2 0 189 442 441 
424 2 0 440 441 442 
425 2 0 163 438 443 
426 2 0 189 441 438 
427 2 0 21 443 441 
428 2 0 438 441 443 
429 2 0 16 444 446 
430 2 0 164 445 444 
431 2 0 208 446 445 
432 2 0 444 445 446 
433 2 0 74 447 449 
434 2 0 73 448 447 
435 2 0 164 449 448 
436 2 0 447 448 449 
437 2 0 208 445 450 
438 2 0 164 448 445 
439 2 0 73 450 448 
440 2 0 445 448 450 
441 2 0 74 451 453 
442 2 0 233 452 451 
443 2 0 216 453 452 
444 2 0 451 452 453 
445 2 0 11 454 456 
446 2 0 75 455 454 
447 2 0 233 456 455 
448 2 0 454 455 456 
449 2 0 216 452 457 
450 2 0 233 455 452 
451 2 0 75 457 455 
452 2 0 452 455 457 
453 2 0 75 442 457 
454 2 0 189 458 442 
455 2 0 216 457 458 
456 2 0 442 458 457 
457 2 0 73 447 437 
458 2 0 74 459 447 
459 2 0 189 437 459 
460 2 0 447 459 437 
461 2 0 216 458 453 
462 2 0 189 459 458 
463 2 0 74 453 459 
464 2 0 458 459 453 
465 2 0 26 460 462 
466 2 0 76 461 460 
467 2 0 78 462 461 
468 2 0 460 461 462 
469 2 0 24 463 465 
470 2 0 77 464 463 
471 2 0 76 465 464 
472 2 0 463 464 465 
473 2 0 18 466 468 
474 2 0 78 467 466 
475 2 0 77 468 467 
476 2 0 466 467 468 
477 2 0 76 464 461 
478 2 0 77 467 464 
479 2 0 78 461 467 
480 2 0 464 467 461 
481 2 0 23 469 471 
482 2 0 79 470 469 
483 2 0 81 471 470 
484 2 0 469 470 471 
485 2 0 17 472 474 
486 2 0 80 473 472 
487 2 0 79 474 473 
488 2 0 472 473 474 
489 2 0 25 475 477 
490 2 0 81 476 475 
491 2 0 80 477 476 
492 2 0 475 476 477 
493 2 0 79 473 470 
494 2 0 80 476 473 
495 2 0 81 470 476 
496 2 0 473 476 470 
497 2 0 17 474 349 
498 2 0 79 478 474 
499 2 0 56 349 478 
500 2 0 474 478 349 
501 2 0 23 479 469 
502 2 0 82 480 479 
503 2 0 79 469 480 
504 2 0 479 480 469 
505 2 0 36 353 482 
506 2 0 56 481 353 
507 2 0 82 482 481 
508 2 0 353 481 482 
509 2 0 79 480 478 
510 2 0 82 481 480 
511 2 0 56 478 481 
512 2 0 480 481 478 
513 2 0 83 483 485 
514 2 0 188 484 483 
515 2 0 172 485 484 
516 2 0 483 484 485 
517 2 0 85 486 488 
518 2 0 27 487 486 
519 2 0 188 488 487 
520 2 0 486 487 488 
521 2 0 172 484 489 
522 2 0 188 487 484 
523 2 0 27 489 487 
524 2 0 484 487 489 
525 2 0 14 490 492 
526 2 0 166 491 490 
527 2 0 207 492 491 
528 2 0 490 491 492 
529 2 0 84 493 495 
530 2 0 83 494 493 
531 2 0 166 495 494 
532 2 0 493 494 495 
533 2 0 207 491 496 
534 2 0 166 494 491 
535 2 0 83 496 494 
536 2 0 491 494 496 
537 2 0 84 497 499 
538 2 0 183 498 497 
539 2 0 201 499 498 
540 2 0 497 498 499 
541 2 0 12 500 502 
542 2 0 85 501 500 
543 2 0 183 502 501 
544 2 0 500 501 502 
545 2 0 201 498 503 
546 2 0 183 501 498 
547 2 0 85 503 501 
548 2 0 498 501 503 
549 2 0 85 488 503 
550 2 0 188 504 488 
551 2 0 201 503 504 
552 2 0 488 504 503 
553 2 0 83 493 483 
554 2 0 84 505 493 
555 2 0 188 483 505 
556 2 0 493 505 483 
557 2 0 201 504 499 
558 2 0 188 505 504 
559 2 0 84 499 505 
560 2 0 504 505 499 
561 2 0 27 506 489 
562 2 0 86 507 506 
563 2 0 172 489 507 
564 2 0 506 507 489 
565 2 0 83 485 508 
566 2 0 172 507 485 
567 2 0 86 508 507 
568 2 0 485 507 508 
569 2 0 62 509 379 
570 2 0 176 510 509 
571 2 0 29 379 510 
572 2 0 509 510 379 
573 2 0 176 511 510 
574 2 0 86 512 511 
575 2 0 29 510 512 
576 2 0 511 512 510 
577 2 0 14 492 383 
578 2 0 207 513 492 
579 2 0 62 383 513 
580 2 0 492 513 383 
581 2 0 207 496 513 
582 2 0 83 514 496 
583 2 0 62 513 514 
584 2 0 496 514 513 
585 2 0 86 511 508 
586 2 0 176 515 511 
587 2 0 83 508 515 
588 2 0 511 515 508 
589 2 0 176 509 515 
590 2 0 62 514 509 
591 2 0 83 515 514 
592 2 0 509 514 515 
593 2 0 38 516 518 
594 2 0 87 517 516 
595 2 0 89 518 517 
596 2 0 516 517 518 
597 2 0 19 519 521 
598 2 0 88 520 519 
599 2 0 87 521 520 
600 2 0 519 520 521 
601 2 0 34 522 524 
602 2 0 89 523 522 
603 2 0 88 524 523 
604 2 0 522 523 524 
605 2 0 87 520 517 
606 2 0 88 523 520 
607 2 0 89 517 523 
608 2 0 520 523 517 
609 2 0 19 521 430 
610 2 0 87 525 521 
611 2 0 71 430 525 
612 2 0 521 525 430 
613 2 0 38 526 516 
614 2 0 90 527 526 
615 2 0 87 516 527 
616 2 0 526 527 516 
617 2 0 30 434 529 
618 2 0 71 528 434 
619 2 0 90 529 528 
620 2 0 434 528 529 
621 2 0 87 527 525 
622 2 0 90 528 527 
623 2 0 71 525 528 
624 2 0 527 528 525 
625 2 0 19 530 519 
626 2 0 91 531 530 
627 2 0 88 519 531 
628 2 0 530 531 519 
629 2 0 31 532 534 
630 2 0 92 533 532 
631 2 0 91 534 533 
632 2 0 532 533 534 
633 2 0 34 524 536 
634 2 0 88 535 524 
635 2 0 92 536 535 
636 2 0 524 535 536 
637 2 0 91 533 531 
638 2 0 92 535 533 
639 2 0 88 531 535 
640 2 0 533 535 531 
641 2 0 21 537 443 
642 2 0 93 538 537 
643 2 0 163 443 538 
644 2 0 537 538 443 
645 2 0 73 439 539 
646 2 0 163 538 439 
647 2 0 93 539 538 
648 2 0 439 538 539 
649 2 0 94 540 542 
650 2 0 223 541 540 
651 2 0 35 542 541 
652 2 0 540 541 542 
653 2 0 223 543 541 
654 2 0 93 544 543 
655 2 0 35 541 544 
656 2 0 543 544 541 
657 2 0 16 446 546 
658 2 0 208 545 446 
659 2 0 94 546 545 
660 2 0 446 545 546 
661 2 0 208 450 545 
662 2 0 73 547 450 
663 2 0 94 545 547 
664 2 0 450 547 545 
665 2 0 93 543 539 
666 2 0 223 548 543 
667 2 0 73 539 548 
668 2 0 543 548 539 
669 2 0 223 540 548 
670 2 0 94 547 540 
671 2 0 73 548 547 
672 2 0 540 547 548 
673 2 0 16 546 550 
674 2 0 94 549 546 
675 2 0 96 550 549 
676 2 0 546 549 550 
677 2 0 35 551 542 
678 2 0 95 552 551 
679 2 0 94 542 552 
680 2 0 551 552 542 
681 2 0 18 553 555 
682 2 0 96 554 553 
683 2 0 95 555 554 
684 2 0 553 554 555 
685 2 0 94 552 549 
686 2 0 95 554 552 
687 2 0 96 549 554 
688 2 0 552 554 549 
689 2 0 35 556 551 
690 2 0 97 557 556 
691 2 0 95 551 557 
692 2 0 556 557 551 
693 2 0 26 462 559 
694 2 0 78 558 462 
695 2 0 97 559 558 
696 2 0 462 558 559 
697 2 0 18 555 466 
698 2 0 95 560 555 
699 2 0 78 466 560 
700 2 0 555 560 466 
701 2 0 97 558 557 
702 2 0 78 560 558 
703 2 0 95 557 560 
704 2 0 558 560 557 
705 2 0 17 561 472 
706 2 0 98 562 561 
707 2 0 80 472 562 
708 2 0 561 562 472 
709 2 0 40 563 565 
710 2 0 99 564 563 
711 2 0 98 565 564 
712 2 0 563 564 565 
713 2 0 25 477 567 
714 2 0 80 566 477 
715 2 0 99 567 566 
716 2 0 477 566 567 
717 2 0 98 564 562 
718 2 0 99 566 564 
719 2 0 80 562 566 
720 2 0 564 566 562 
721 2 0 20 568 424 
722 2 0 100 569 568 
723 2 0 69 424 569 
724 2 0 568 569 424 
725 2 0 37 570 572 
726 2 0 101 571 570 
727 2 0 100 572 571 
728 2 0 570 571 572 
729 2 0 33 429 574 
730 2 0 69 573 429 
731 2 0 101 574 573 
732 2 0 429 573 574 
733 2 0 100 571 569 
734 2 0 101 573 571 
735 2 0 69 569 573 
736 2 0 571 573 569 
737 2 0 29 575 377 
738 2 0 102 576 575 
739 2 0 60 377 576 
740 2 0 575 576 377 
741 2 0 37 572 578 
742 2 0 100 577 572 
743 2 0 102 578 577 
744 2 0 572 577 578 
745 2 0 20 382 568 
746 2 0 60 579 382 
747 2 0 100 568 579 
748 2 0 382 579 568 
749 2 0 102 577 576 
750 2 0 100 579 577 
751 2 0 60 576 579 
752 2 0 577 579 576 
753 2 0 24 580 463 
754 2 0 103 581 580 
755 2 0 77 463 581 
756 2 0 580 581 463 
757 2 0 39 582 584 
758 2 0 104 583 582 
759 2 0 103 584 583 
760 2 0 582 583 584 
761 2 0 18 468 586 
762 2 0 77 585 468 
763 2 0 104 586 585 
764 2 0 468 585 586 
765 2 0 103 583 581 
766 2 0 104 585 583 
767 2 0 77 581 585 
768 2 0 583 585 581 
769 2 0 2 587 589 
770 2 0 105 588 587 
771 2 0 107 589 588 
772 2 0 587 588 589 
773 2 0 1 590 592 
774 2 0 106 591 590 
775 2 0 105 592 591 
776 2 0 590 591 592 
777 2 0 3 593 595 
778 2 0 107 594 593 
779 2 0 106 595 594 
780 2 0 593 594 595 
781 2 0 105 591 588 
782 2 0 106 594 591 
783 2 0 107 588 594 
784 2 0 591 594 588 
785 2 0 1 592 597 
786 2 0 105 596 592 
787 2 0 109 597 596 
788 2 0 592 596 597 
789 2 0 2 598 587 
790 2 0 108 599 598 
791 2 0 105 587 599 
792 2 0 598 599 587 
793 2 0 4 600 602 
794 2 0 109 601 600 
795 2 0 108 602 601 
796 2 0 600 601 602 
797 2 0 105 599 596 
798 2 0 108 601 599 
799 2 0 109 596 601 
800 2 0 599 601 596 
801 2 0 5 603 255 
802 2 0 110 604 603 
803 2 0 42 255 604 
804 2 0 603 604 255 
805 2 0 2 589 606 
806 2 0 107 605 589 
807 2 0 110 606 605 
808 2 0 589 605 606 
809 2 0 3 262 593 
810 2 0 42 607 262 
811 2 0 107 593 607 
812 2 0 262 607 593 
813 2 0 110 605 604 
814 2 0 107 607 605 
815 2 0 42 604 607 
816 2 0 605 607 604 
817 2 0 2 606 276 
818 2 0 110 608 606 
819 2 0 45 276 608 
820 2 0 606 608 276 
821 2 0 5 609 603 
822 2 0 111 610 609 
823 2 0 110 603 610 
824 2 0 609 610 603 
825 2 0 6 283 612 
826 2 0 45 611 283 
827 2 0 111 612 611 
828 2 0 283 611 612 
829 2 0 110 610 608 
830 2 0 111 611 610 
831 2 0 45 608 611 
832 2 0 610 611 608 
833 2 0 7 613 366 
834 2 0 112 614 613 
835 2 0 58 366 614 
836 2 0 613 614 366 
837 2 0 1 597 616 
838 2 0 109 615 597 
839 2 0 112 616 615 
840 2 0 597 615 616 
841 2 0 4 373 600 
842 2 0 58 617 373 
843 2 0 109 600 617 
844 2 0 373 617 600 
845 2 0 112 615 614 
846 2 0 109 617 615 
847 2 0 58 614 617 
848 2 0 615 617 614 
849 2 0 1 616 299 
850 2 0 112 618 616 
851 2 0 48 299 618 
852 2 0 616 618 299 
853 2 0 7 619 613 
854 2 0 113 620 619 
855 2 0 112 613 620 
856 2 0 619 620 613 
857 2 0 8 306 622 
858 2 0 48 621 306 
859 2 0 113 622 621 
860 2 0 306 621 622 
861 2 0 112 620 618 
862 2 0 113 621 620 
863 2 0 48 618 621 
864 2 0 620 621 618 
865 2 0 10 623 625 
866 2 0 114 624 623 
867 2 0 116 625 624 
868 2 0 623 624 625 
869 2 0 9 626 628 
870 2 0 115 627 626 
871 2 0 114 628 627 
872 2 0 626 627 628 
873 2 0 11 629 631 
874 2 0 116 630 629 
875 2 0 115 631 630 
876 2 0 629 630 631 
877 2 0 114 627 624 
878 2 0 115 630 627 
879 2 0 116 624 630 
880 2 0 627 630 624 
881 2 0 9 628 633 
882 2 0 114 632 628 
883 2 0 118 633 632 
884 2 0 628 632 633 
885 2 0 10 634 623 
886 2 0 117 635 634 
887 2 0 114 623 635 
888 2 0 634 635 623 
889 2 0 12 636 638 
890 2 0 118 637 636 
891 2 0 117 638 637 
892 2 0 636 637 638 
893 2 0 114 635 632 
894 2 0 117 637 635 
895 2 0 118 632 637 
896 2 0 635 637 632 
897 2 0 119 639 641 
898 2 0 168 640 639 
899 2 0 180 641 640 
900 2 0 639 640 641 
901 2 0 5 642 609 
902 2 0 180 643 642 
903 2 0 111 609 643 
904 2 0 642 643 609 
905 2 0 168 644 640 
906 2 0 111 643 644 
907 2 0 180 640 643 
908 2 0 644 643 640 
909 2 0 13 268 646 
910 2 0 222 645 268 
911 2 0 187 646 645 
912 2 0 268 645 646 
913 2 0 119 647 649 
914 2 0 187 648 647 
915 2 0 46 649 648 
916 2 0 647 648 649 
917 2 0 222 272 645 
918 2 0 46 648 272 
919 2 0 187 645 648 
920 2 0 272 648 645 
921 2 0 46 282 651 
922 2 0 177 650 282 
923 2 0 209 651 650 
924 2 0 282 650 651 
925 2 0 111 652 612 
926 2 0 209 653 652 
927 2 0 6 612 653 
928 2 0 652 653 612 
929 2 0 177 286 650 
930 2 0 6 653 286 
931 2 0 209 650 653 
932 2 0 286 653 650 
933 2 0 111 644 652 
934 2 0 168 654 644 
935 2 0 209 652 654 
936 2 0 644 654 652 
937 2 0 46 651 649 
938 2 0 209 655 651 
939 2 0 119 649 655 
940 2 0 651 655 649 
941 2 0 168 639 654 
942 2 0 119 655 639 
943 2 0 209 654 655 
944 2 0 639 655 654 
945 2 0 41 249 657 
946 2 0 235 656 249 
947 2 0 231 657 656 
948 2 0 249 656 657 
949 2 0 120 658 660 
950 2 0 231 659 658 
951 2 0 14 660 659 
952 2 0 658 659 660 
953 2 0 235 243 656 
954 2 0 14 659 243 
955 2 0 231 656 659 
956 2 0 243 659 656 
957 2 0 119 661 647 
958 2 0 200 662 661 
959 2 0 187 647 662 
960 2 0 661 662 647 
961 2 0 13 646 664 
962 2 0 187 663 646 
963 2 0 120 664 663 
964 2 0 646 663 664 
965 2 0 200 665 662 
966 2 0 120 663 665 
967 2 0 187 662 663 
968 2 0 665 663 662 
969 2 0 5 256 642 
970 2 0 167 666 256 
971 2 0 180 642 666 
972 2 0 256 666 642 
973 2 0 119 641 668 
974 2 0 180 667 641 
975 2 0 41 668 667 
976 2 0 641 667 668 
977 2 0 167 250 666 
978 2 0 41 667 250 
979 2 0 180 666 667 
980 2 0 250 667 666 
981 2 0 120 665 658 
982 2 0 200 669 665 
983 2 0 231 658 669 
984 2 0 665 669 658 
985 2 0 41 657 668 
986 2 0 231 670 657 
987 2 0 119 668 670 
988 2 0 657 670 668 
989 2 0 200 661 669 
990 2 0 119 670 661 
991 2 0 231 669 670 
992 2 0 661 670 669 
993 2 0 15 314 672 
994 2 0 214 671 314 
995 2 0 186 672 671 
996 2 0 314 671 672 
997 2 0 121 673 675 
998 2 0 186 674 673 
999 2 0 52 675 674 
1000 2 0 673 674 675 
1001 2 0 214 315 671 
1002 2 0 52 674 315 
1003 2 0 186 671 674 
1004 2 0 315 674 671 
1005 2 0 52 328 677 
1006 2 0 241 676 328 
1007 2 0 170 677 676 
1008 2 0 328 676 677 
1009 2 0 118 678 633 
1010 2 0 170 679 678 
1011 2 0 9 633 679 
1012 2 0 678 679 633 
1013 2 0 241 329 676 
1014 2 0 9 679 329 
1015 2 0 170 676 679 
1016 2 0 329 679 676 
1017 2 0 121 680 682 
1018 2 0 232 681 680 
1019 2 0 221 682 681 
1020 2 0 680 681 682 
1021 2 0 12 683 636 
1022 2 0 221 684 683 
1023 2 0 118 636 684 
1024 2 0 683 684 636 
1025 2 0 232 685 681 
1026 2 0 118 684 685 
1027 2 0 221 681 684 
1028 2 0 685 684 681 
1029 2 0 118 685 678 
1030 2 0 232 686 685 
1031 2 0 170 678 686 
1032 2 0 685 686 678 
1033 2 0 52 677 675 
1034 2 0 170 687 677 
1035 2 0 121 675 687 
1036 2 0 677 687 675 
1037 2 0 232 680 686 
1038 2 0 121 687 680 
1039 2 0 170 686 687 
1040 2 0 680 687 686 
1041 2 0 84 495 689 
1042 2 0 166 688 495 
1043 2 0 160 689 688 
1044 2 0 495 688 689 
1045 2 0 122 690 692 
1046 2 0 160 691 690 
1047 2 0 14 692 691 
1048 2 0 690 691 692 
1049 2 0 166 490 688 
1050 2 0 14 691 490 
1051 2 0 160 688 691 
1052 2 0 490 691 688 
1053 2 0 121 693 673 
1054 2 0 227 694 693 
1055 2 0 186 673 694 
1056 2 0 693 694 673 
1057 2 0 15 672 696 
1058 2 0 186 695 672 
1059 2 0 122 696 695 
1060 2 0 672 695 696 
1061 2 0 227 697 694 
1062 2 0 122 695 697 
1063 2 0 186 694 695 
1064 2 0 697 695 694 
1065 2 0 12 502 683 
1066 2 0 183 698 502 
1067 2 0 221 683 698 
1068 2 0 502 698 683 
1069 2 0 121 682 700 
1070 2 0 221 699 682 
1071 2 0 84 700 699 
1072 2 0 682 699 700 
1073 2 0 183 497 698 
1074 2 0 84 699 497 
1075 2 0 221 698 699 
1076 2 0 497 699 698 
1077 2 0 122 697 690 
1078 2 0 227 701 697 
1079 2 0 160 690 701 
1080 2 0 697 701 690 
1081 2 0 84 689 700 
1082 2 0 160 702 689 
1083 2 0 121 700 702 
1084 2 0 689 702 700 
1085 2 0 227 693 701 
1086 2 0 121 702 693 
1087 2 0 160 701 702 
1088 2 0 693 702 701 
1089 2 0 47 703 296 
1090 2 0 238 704 703 
1091 2 0 193 296 704 
1092 2 0 703 704 296 
1093 2 0 106 590 706 
1094 2 0 1 705 590 
1095 2 0 238 706 705 
1096 2 0 590 705 706 
1097 2 0 193 704 301 
1098 2 0 238 705 704 
1099 2 0 1 301 705 
1100 2 0 704 705 301 
1101 2 0 15 707 289 
1102 2 0 157 708 707 
1103 2 0 162 289 708 
1104 2 0 707 708 289 
1105 2 0 123 709 711 
1106 2 0 47 710 709 
1107 2 0 157 711 710 
1108 2 0 709 710 711 
1109 2 0 162 708 294 
1110 2 0 157 710 708 
1111 2 0 47 294 710 
1112 2 0 708 710 294 
1113 2 0 123 712 714 
1114 2 0 171 713 712 
1115 2 0 212 714 713 
1116 2 0 712 713 714 
1117 2 0 3 595 716 
1118 2 0 106 715 595 
1119 2 0 171 716 715 
1120 2 0 595 715 716 
1121 2 0 212 713 717 
1122 2 0 171 715 713 
1123 2 0 106 717 715 
1124 2 0 713 715 717 
1125 2 0 106 706 717 
1126 2 0 238 718 706 
1127 2 0 212 717 718 
1128 2 0 706 718 717 
1129 2 0 47 709 703 
1130 2 0 123 719 709 
1131 2 0 238 703 719 
1132 2 0 709 719 703 
1133 2 0 212 718 714 
1134 2 0 238 719 718 
1135 2 0 123 714 719 
1136 2 0 718 719 714 
1137 2 0 123 711 721 
1138 2 0 157 720 711 
1139 2 0 218 721 720 
1140 2 0 711 720 721 
1141 2 0 15 696 707 
1142 2 0 122 722 696 
1143 2 0 157 707 722 
1144 2 0 696 722 707 
1145 2 0 218 720 723 
1146 2 0 157 722 720 
1147 2 0 122 723 722 
1148 2 0 720 722 723 
1149 2 0 43 724 246 
1150 2 0 230 725 724 
1151 2 0 199 246 725 
1152 2 0 724 725 246 
1153 2 0 122 692 727 
1154 2 0 14 726 692 
1155 2 0 230 727 726 
1156 2 0 692 726 727 
1157 2 0 199 725 245 
1158 2 0 230 726 725 
1159 2 0 14 245 726 
1160 2 0 725 726 245 
1161 2 0 3 716 260 
1162 2 0 171 728 716 
1163 2 0 175 260 728 
1164 2 0 716 728 260 
1165 2 0 123 729 712 
1166 2 0 43 730 729 
1167 2 0 171 712 730 
1168 2 0 729 730 712 
1169 2 0 175 728 259 
1170 2 0 171 730 728 
1171 2 0 43 259 730 
1172 2 0 728 730 259 
1173 2 0 122 727 723 
1174 2 0 230 731 727 
1175 2 0 218 723 731 
1176 2 0 727 731 723 
1177 2 0 43 729 724 
1178 2 0 123 732 729 
1179 2 0 230 724 732 
1180 2 0 729 732 724 
1181 2 0 218 731 721 
1182 2 0 230 732 731 
1183 2 0 123 721 732 
1184 2 0 731 732 721 
1185 2 0 16 733 735 
1186 2 0 124 734 733 
1187 2 0 125 735 734 
1188 2 0 733 734 735 
1189 2 0 17 351 737 
1190 2 0 55 736 351 
1191 2 0 124 737 736 
1192 2 0 351 736 737 
1193 2 0 15 738 347 
1194 2 0 125 739 738 
1195 2 0 55 347 739 
1196 2 0 738 739 347 
1197 2 0 124 736 734 
1198 2 0 55 739 736 
1199 2 0 125 734 739 
1200 2 0 736 739 734 
1201 2 0 17 737 741 
1202 2 0 124 740 737 
1203 2 0 126 741 740 
1204 2 0 737 740 741 
1205 2 0 16 550 733 
1206 2 0 96 742 550 
1207 2 0 124 733 742 
1208 2 0 550 742 733 
1209 2 0 18 743 553 
1210 2 0 126 744 743 
1211 2 0 96 553 744 
1212 2 0 743 744 553 
1213 2 0 124 742 740 
1214 2 0 96 744 742 
1215 2 0 126 740 744 
1216 2 0 742 744 740 
1217 2 0 57 745 361 
1218 2 0 161 746 745 
1219 2 0 181 361 746 
1220 2 0 745 746 361 
1221 2 0 113 619 748 
1222 2 0 7 747 619 
1223 2 0 161 748 747 
1224 2 0 619 747 748 
1225 2 0 181 746 367 
1226 2 0 161 747 746 
1227 2 0 7 367 747 
1228 2 0 746 747 367 
1229 2 0 16 749 354 
1230 2 0 236 750 749 
1231 2 0 202 354 750 
1232 2 0 749 750 354 
1233 2 0 127 751 753 
1234 2 0 57 752 751 
1235 2 0 236 753 752 
1236 2 0 751 752 753 
1237 2 0 202 750 360 
1238 2 0 236 752 750 
1239 2 0 57 360 752 
1240 2 0 750 752 360 
1241 2 0 127 754 756 
1242 2 0 240 755 754 
1243 2 0 191 756 755 
1244 2 0 754 755 756 
1245 2 0 8 622 758 
1246 2 0 113 757 622 
1247 2 0 240 758 757 
1248 2 0 622 757 758 
1249 2 0 191 755 759 
1250 2 0 240 757 755 
1251 2 0 113 759 757 
1252 2 0 755 757 759 
1253 2 0 113 748 759 
1254 2 0 161 760 748 
1255 2 0 191 759 760 
1256 2 0 748 760 759 
1257 2 0 57 751 745 
1258 2 0 127 761 751 
1259 2 0 161 745 761 
1260 2 0 751 761 745 
1261 2 0 191 760 756 
1262 2 0 161 761 760 
1263 2 0 127 756 761 
1264 2 0 760 761 756 
1265 2 0 127 753 763 
1266 2 0 236 762 753 
1267 2 0 178 763 762 
1268 2 0 753 762 763 
1269 2 0 16 735 749 
1270 2 0 125 764 735 
1271 2 0 236 749 764 
1272 2 0 735 764 749 
1273 2 0 178 762 765 
1274 2 0 236 764 762 
1275 2 0 125 765 764 
1276 2 0 762 764 765 
1277 2 0 49 766 295 
1278 2 0 173 767 766 
1279 2 0 179 295 767 
1280 2 0 766 767 295 
1281 2 0 125 738 769 
1282 2 0 15 768 738 
1283 2 0 173 769 768 
1284 2 0 738 768 769 
1285 2 0 179 767 291 
1286 2 0 173 768 767 
1287 2 0 15 291 768 
1288 2 0 767 768 291 
1289 2 0 8 758 309 
1290 2 0 240 770 758 
1291 2 0 205 309 770 
1292 2 0 758 770 309 
1293 2 0 127 771 754 
1294 2 0 49 772 771 
1295 2 0 240 754 772 
1296 2 0 771 772 754 
1297 2 0 205 770 305 
1298 2 0 240 772 770 
1299 2 0 49 305 772 
1300 2 0 770 772 305 
1301 2 0 125 769 765 
1302 2 0 173 773 769 
1303 2 0 178 765 773 
1304 2 0 769 773 765 
1305 2 0 49 771 766 
1306 2 0 127 774 771 
1307 2 0 173 766 774 
1308 2 0 771 774 766 
1309 2 0 178 773 763 
1310 2 0 173 774 773 
1311 2 0 127 763 774 
1312 2 0 773 774 763 
1313 2 0 128 775 777 
1314 2 0 192 776 775 
1315 2 0 174 777 776 
1316 2 0 775 776 777 
1317 2 0 2 778 598 
1318 2 0 174 779 778 
1319 2 0 108 598 779 
1320 2 0 778 779 598 
1321 2 0 192 780 776 
1322 2 0 108 779 780 
1323 2 0 174 776 779 
1324 2 0 780 779 776 
1325 2 0 16 356 782 
1326 2 0 228 781 356 
1327 2 0 182 782 781 
1328 2 0 356 781 782 
1329 2 0 128 783 785 
1330 2 0 182 784 783 
1331 2 0 59 785 784 
1332 2 0 783 784 785 
1333 2 0 228 357 781 
1334 2 0 59 784 357 
1335 2 0 182 781 784 
1336 2 0 357 784 781 
1337 2 0 59 370 787 
1338 2 0 239 786 370 
1339 2 0 206 787 786 
1340 2 0 370 786 787 
1341 2 0 108 788 602 
1342 2 0 206 789 788 
1343 2 0 4 602 789 
1344 2 0 788 789 602 
1345 2 0 239 371 786 
1346 2 0 4 789 371 
1347 2 0 206 786 789 
1348 2 0 371 789 786 
1349 2 0 108 780 788 
1350 2 0 192 790 780 
1351 2 0 206 788 790 
1352 2 0 780 790 788 
1353 2 0 59 787 785 
1354 2 0 206 791 787 
1355 2 0 128 785 791 
1356 2 0 787 791 785 
1357 2 0 192 775 790 
1358 2 0 128 791 775 
1359 2 0 206 790 791 
1360 2 0 775 791 790 
1361 2 0 44 271 793 
1362 2 0 234 792 271 
1363 2 0 213 793 792 
1364 2 0 271 792 793 
1365 2 0 129 794 796 
1366 2 0 213 795 794 
1367 2 0 13 796 795 
1368 2 0 794 795 796 
1369 2 0 234 266 792 
1370 2 0 13 795 266 
1371 2 0 213 792 795 
1372 2 0 266 795 792 
1373 2 0 128 797 783 
1374 2 0 196 798 797 
1375 2 0 182 783 798 
1376 2 0 797 798 783 
1377 2 0 16 782 800 
1378 2 0 182 799 782 
1379 2 0 129 800 799 
1380 2 0 782 799 800 
1381 2 0 196 801 798 
1382 2 0 129 799 801 
1383 2 0 182 798 799 
1384 2 0 801 799 798 
1385 2 0 2 278 778 
1386 2 0 155 802 278 
1387 2 0 174 778 802 
1388 2 0 278 802 778 
1389 2 0 128 777 804 
1390 2 0 174 803 777 
1391 2 0 44 804 803 
1392 2 0 777 803 804 
1393 2 0 155 273 802 
1394 2 0 44 803 273 
1395 2 0 174 802 803 
1396 2 0 273 803 802 
1397 2 0 129 801 794 
1398 2 0 196 805 801 
1399 2 0 213 794 805 
1400 2 0 801 805 794 
1401 2 0 44 793 804 
1402 2 0 213 806 793 
1403 2 0 128 804 806 
1404 2 0 793 806 804 
1405 2 0 196 797 805 
1406 2 0 128 806 797 
1407 2 0 213 805 806 
1408 2 0 797 806 805 
1409 2 0 16 807 444 
1410 2 0 169 808 807 
1411 2 0 164 444 808 
1412 2 0 807 808 444 
1413 2 0 130 809 811 
1414 2 0 74 810 809 
1415 2 0 169 811 810 
1416 2 0 809 810 811 
1417 2 0 164 808 449 
1418 2 0 169 810 808 
1419 2 0 74 449 810 
1420 2 0 808 810 449 
1421 2 0 130 812 814 
1422 2 0 185 813 812 
1423 2 0 159 814 813 
1424 2 0 812 813 814 
1425 2 0 10 625 816 
1426 2 0 116 815 625 
1427 2 0 185 816 815 
1428 2 0 625 815 816 
1429 2 0 159 813 817 
1430 2 0 185 815 813 
1431 2 0 116 817 815 
1432 2 0 813 815 817 
1433 2 0 74 818 451 
1434 2 0 158 819 818 
1435 2 0 233 451 819 
1436 2 0 818 819 451 
1437 2 0 116 629 821 
1438 2 0 11 820 629 
1439 2 0 158 821 820 
1440 2 0 629 820 821 
1441 2 0 233 819 456 
1442 2 0 158 820 819 
1443 2 0 11 456 820 
1444 2 0 819 820 456 
1445 2 0 116 821 817 
1446 2 0 158 822 821 
1447 2 0 159 817 822 
1448 2 0 821 822 817 
1449 2 0 74 809 818 
1450 2 0 130 823 809 
1451 2 0 158 818 823 
1452 2 0 809 823 818 
1453 2 0 159 822 814 
1454 2 0 158 823 822 
1455 2 0 130 814 823 
1456 2 0 822 823 814 
1457 2 0 130 811 825 
1458 2 0 169 824 811 
1459 2 0 224 825 824 
1460 2 0 811 824 825 
1461 2 0 16 800 807 
1462 2 0 129 826 800 
1463 2 0 169 807 826 
1464 2 0 800 826 807 
1465 2 0 224 824 827 
1466 2 0 169 826 824 
1467 2 0 129 827 826 
1468 2 0 824 826 827 
1469 2 0 65 828 389 
1470 2 0 156 829 828 
1471 2 0 165 389 829 
1472 2 0 828 829 389 
1473 2 0 129 796 831 
1474 2 0 13 830 796 
1475 2 0 156 831 830 
1476 2 0 796 830 831 
1477 2 0 165 829 388 
1478 2 0 156 830 829 
1479 2 0 13 388 830 
1480 2 0 829 830 388 
1481 2 0 10 816 403 
1482 2 0 185 832 816 
1483 2 0 237 403 832 
1484 2 0 816 832 403 
1485 2 0 130 833 812 
1486 2 0 65 834 833 
1487 2 0 185 812 834 
1488 2 0 833 834 812 
1489 2 0 237 832 402 
1490 2 0 185 834 832 
1491 2 0 65 402 834 
1492 2 0 832 834 402 
1493 2 0 129 831 827 
1494 2 0 156 835 831 
1495 2 0 224 827 835 
1496 2 0 831 835 827 
1497 2 0 65 833 828 
1498 2 0 130 836 833 
1499 2 0 156 828 836 
1500 2 0 833 836 828 
1501 2 0 224 835 825 
1502 2 0 156 836 835 
1503 2 0 130 825 836 
1504 2 0 835 836 825 
1505 2 0 19 432 838 
1506 2 0 72 837 432 
1507 2 0 131 838 837 
1508 2 0 432 837 838 
1509 2 0 13 664 435 
1510 2 0 120 839 664 
1511 2 0 72 435 839 
1512 2 0 664 839 435 
1513 2 0 14 840 660 
1514 2 0 131 841 840 
1515 2 0 120 660 841 
1516 2 0 840 841 660 
1517 2 0 72 839 837 
1518 2 0 120 841 839 
1519 2 0 131 837 841 
1520 2 0 839 841 837 
1521 2 0 20 842 380 
1522 2 0 132 843 842 
1523 2 0 61 380 843 
1524 2 0 842 843 380 
1525 2 0 19 838 845 
1526 2 0 131 844 838 
1527 2 0 132 845 844 
1528 2 0 838 844 845 
1529 2 0 14 385 840 
1530 2 0 61 846 385 
1531 2 0 131 840 846 
1532 2 0 385 846 840 
1533 2 0 132 844 843 
1534 2 0 131 846 844 
1535 2 0 61 843 846 
1536 2 0 844 846 843 
1537 2 0 9 847 626 
1538 2 0 133 848 847 
1539 2 0 115 626 848 
1540 2 0 847 848 626 
1541 2 0 21 440 850 
1542 2 0 75 849 440 
1543 2 0 133 850 849 
1544 2 0 440 849 850 
1545 2 0 11 631 454 
1546 2 0 115 851 631 
1547 2 0 75 454 851 
1548 2 0 631 851 454 
1549 2 0 133 849 848 
1550 2 0 75 851 849 
1551 2 0 115 848 851 
1552 2 0 849 851 848 
1553 2 0 22 852 324 
1554 2 0 134 853 852 
1555 2 0 51 324 853 
1556 2 0 852 853 324 
1557 2 0 21 850 855 
1558 2 0 133 854 850 
1559 2 0 134 855 854 
1560 2 0 850 854 855 
1561 2 0 9 331 847 
1562 2 0 51 856 331 
1563 2 0 133 847 856 
1564 2 0 331 856 847 
1565 2 0 134 854 853 
1566 2 0 133 856 854 
1567 2 0 51 853 856 
1568 2 0 854 856 853 
1569 2 0 24 857 859 
1570 2 0 135 858 857 
1571 2 0 136 859 858 
1572 2 0 857 858 859 
1573 2 0 23 471 861 
1574 2 0 81 860 471 
1575 2 0 135 861 860 
1576 2 0 471 860 861 
1577 2 0 25 862 475 
1578 2 0 136 863 862 
1579 2 0 81 475 863 
1580 2 0 862 863 475 
1581 2 0 135 860 858 
1582 2 0 81 863 860 
1583 2 0 136 858 863 
1584 2 0 860 863 858 
1585 2 0 23 861 865 
1586 2 0 135 864 861 
1587 2 0 137 865 864 
1588 2 0 861 864 865 
1589 2 0 24 465 857 
1590 2 0 76 866 465 
1591 2 0 135 857 866 
1592 2 0 465 866 857 
1593 2 0 26 867 460 
1594 2 0 137 868 867 
1595 2 0 76 460 868 
1596 2 0 867 868 460 
1597 2 0 135 866 864 
1598 2 0 76 868 866 
1599 2 0 137 864 868 
1600 2 0 866 868 864 
1601 2 0 10 869 634 
1602 2 0 138 870 869 
1603 2 0 117 634 870 
1604 2 0 869 870 634 
1605 2 0 27 486 872 
1606 2 0 85 871 486 
1607 2 0 138 872 871 
1608 2 0 486 871 872 
1609 2 0 12 638 500 
1610 2 0 117 873 638 
1611 2 0 85 500 873 
1612 2 0 638 873 500 
1613 2 0 138 871 870 
1614 2 0 85 873 871 
1615 2 0 117 870 873 
1616 2 0 871 873 870 
1617 2 0 28 874 398 
1618 2 0 139 875 874 
1619 2 0 64 398 875 
1620 2 0 874 875 398 
1621 2 0 27 872 877 
1622 2 0 138 876 872 
1623 2 0 139 877 876 
1624 2 0 872 876 877 
1625 2 0 10 405 869 
1626 2 0 64 878 405 
1627 2 0 138 869 878 
1628 2 0 405 878 869 
1629 2 0 139 876 875 
1630 2 0 138 878 876 
1631 2 0 64 875 878 
1632 2 0 876 878 875 
1633 2 0 29 512 880 
1634 2 0 86 879 512 
1635 2 0 141 880 879 
1636 2 0 512 879 880 
1637 2 0 27 881 506 
1638 2 0 140 882 881 
1639 2 0 86 506 882 
1640 2 0 881 882 506 
1641 2 0 30 883 885 
1642 2 0 141 884 883 
1643 2 0 140 885 884 
1644 2 0 883 884 885 
1645 2 0 86 882 879 
1646 2 0 140 884 882 
1647 2 0 141 879 884 
1648 2 0 882 884 879 
1649 2 0 27 877 881 
1650 2 0 139 886 877 
1651 2 0 140 881 886 
1652 2 0 877 886 881 
1653 2 0 28 415 874 
1654 2 0 66 887 415 
1655 2 0 139 874 887 
1656 2 0 415 887 874 
1657 2 0 30 885 411 
1658 2 0 140 888 885 
1659 2 0 66 411 888 
1660 2 0 885 888 411 
1661 2 0 139 887 886 
1662 2 0 66 888 887 
1663 2 0 140 886 888 
1664 2 0 887 888 886 
1665 2 0 31 889 891 
1666 2 0 142 890 889 
1667 2 0 143 891 890 
1668 2 0 889 890 891 
1669 2 0 32 423 893 
1670 2 0 70 892 423 
1671 2 0 142 893 892 
1672 2 0 423 892 893 
1673 2 0 33 894 427 
1674 2 0 143 895 894 
1675 2 0 70 427 895 
1676 2 0 894 895 427 
1677 2 0 142 892 890 
1678 2 0 70 895 892 
1679 2 0 143 890 895 
1680 2 0 892 895 890 
1681 2 0 31 891 532 
1682 2 0 143 896 891 
1683 2 0 92 532 896 
1684 2 0 891 896 532 
1685 2 0 33 897 894 
1686 2 0 144 898 897 
1687 2 0 143 894 898 
1688 2 0 897 898 894 
1689 2 0 34 536 900 
1690 2 0 92 899 536 
1691 2 0 144 900 899 
1692 2 0 536 899 900 
1693 2 0 143 898 896 
1694 2 0 144 899 898 
1695 2 0 92 896 899 
1696 2 0 898 899 896 
1697 2 0 31 534 902 
1698 2 0 91 901 534 
1699 2 0 145 902 901 
1700 2 0 534 901 902 
1701 2 0 19 845 530 
1702 2 0 132 903 845 
1703 2 0 91 530 903 
1704 2 0 845 903 530 
1705 2 0 20 904 842 
1706 2 0 145 905 904 
1707 2 0 132 842 905 
1708 2 0 904 905 842 
1709 2 0 91 903 901 
1710 2 0 132 905 903 
1711 2 0 145 901 905 
1712 2 0 903 905 901 
1713 2 0 32 893 421 
1714 2 0 142 906 893 
1715 2 0 68 421 906 
1716 2 0 893 906 421 
1717 2 0 31 902 889 
1718 2 0 145 907 902 
1719 2 0 142 889 907 
1720 2 0 902 907 889 
1721 2 0 20 426 904 
1722 2 0 68 908 426 
1723 2 0 145 904 908 
1724 2 0 426 908 904 
1725 2 0 142 907 906 
1726 2 0 145 908 907 
1727 2 0 68 906 908 
1728 2 0 907 908 906 
1729 2 0 35 909 556 
1730 2 0 146 910 909 
1731 2 0 97 556 910 
1732 2 0 909 910 556 
1733 2 0 23 865 912 
1734 2 0 137 911 865 
1735 2 0 146 912 911 
1736 2 0 865 911 912 
1737 2 0 26 559 867 
1738 2 0 97 913 559 
1739 2 0 137 867 913 
1740 2 0 559 913 867 
1741 2 0 146 911 910 
1742 2 0 137 913 911 
1743 2 0 97 910 913 
1744 2 0 911 913 910 
1745 2 0 23 912 479 
1746 2 0 146 914 912 
1747 2 0 82 479 914 
1748 2 0 912 914 479 
1749 2 0 35 915 909 
1750 2 0 147 916 915 
1751 2 0 146 909 916 
1752 2 0 915 916 909 
1753 2 0 36 482 918 
1754 2 0 82 917 482 
1755 2 0 147 918 917 
1756 2 0 482 917 918 
1757 2 0 146 916 914 
1758 2 0 147 917 916 
1759 2 0 82 914 917 
1760 2 0 916 917 914 
1761 2 0 35 544 920 
1762 2 0 93 919 544 
1763 2 0 148 920 919 
1764 2 0 544 919 920 
1765 2 0 21 855 537 
1766 2 0 134 921 855 
1767 2 0 93 537 921 
1768 2 0 855 921 537 
1769 2 0 22 922 852 
1770 2 0 148 923 922 
1771 2 0 134 852 923 
1772 2 0 922 923 852 
1773 2 0 93 921 919 
1774 2 0 134 923 921 
1775 2 0 148 919 923 
1776 2 0 921 923 919 
1777 2 0 35 920 915 
1778 2 0 148 924 920 
1779 2 0 147 915 924 
1780 2 0 920 924 915 
1781 2 0 22 336 922 
1782 2 0 54 925 336 
1783 2 0 148 922 925 
1784 2 0 336 925 922 
1785 2 0 36 918 343 
1786 2 0 147 926 918 
1787 2 0 54 343 926 
1788 2 0 918 926 343 
1789 2 0 148 925 924 
1790 2 0 54 926 925 
1791 2 0 147 924 926 
1792 2 0 925 926 924 
1793 2 0 33 574 897 
1794 2 0 101 927 574 
1795 2 0 144 897 927 
1796 2 0 574 927 897 
1797 2 0 37 928 570 
1798 2 0 149 929 928 
1799 2 0 101 570 929 
1800 2 0 928 929 570 
1801 2 0 34 900 931 
1802 2 0 144 930 900 
1803 2 0 149 931 930 
1804 2 0 900 930 931 
1805 2 0 101 929 927 
1806 2 0 149 930 929 
1807 2 0 144 927 930 
1808 2 0 929 930 927 
1809 2 0 37 932 928 
1810 2 0 150 933 932 
1811 2 0 149 928 933 
1812 2 0 932 933 928 
1813 2 0 38 518 935 
1814 2 0 89 934 518 
1815 2 0 150 935 934 
1816 2 0 518 934 935 
1817 2 0 34 931 522 
1818 2 0 149 936 931 
1819 2 0 89 522 936 
1820 2 0 931 936 522 
1821 2 0 150 934 933 
1822 2 0 89 936 934 
1823 2 0 149 933 936 
1824 2 0 934 936 933 
1825 2 0 37 578 938 
1826 2 0 102 937 578 
1827 2 0 151 938 937 
1828 2 0 578 937 938 
1829 2 0 29 880 575 
1830 2 0 141 939 880 
1831 2 0 102 575 939 
1832 2 0 880 939 575 
1833 2 0 30 940 883 
1834 2 0 151 941 940 
1835 2 0 141 883 941 
1836 2 0 940 941 883 
1837 2 0 102 939 937 
1838 2 0 141 941 939 
1839 2 0 151 937 941 
1840 2 0 939 941 937 
1841 2 0 38 935 526 
1842 2 0 150 942 935 
1843 2 0 90 526 942 
1844 2 0 935 942 526 
1845 2 0 37 938 932 
1846 2 0 151 943 938 
1847 2 0 150 932 943 
1848 2 0 938 943 932 
1849 2 0 30 529 940 
1850 2 0 90 944 529 
1851 2 0 151 940 944 
1852 2 0 529 944 940 
1853 2 0 150 943 942 
1854 2 0 151 944 943 
1855 2 0 90 942 944 
1856 2 0 943 944 942 
1857 2 0 39 945 582 
1858 2 0 152 946 945 
1859 2 0 104 582 946 
1860 2 0 945 946 582 
1861 2 0 17 741 948 
1862 2 0 126 947 741 
1863 2 0 152 948 947 
1864 2 0 741 947 948 
1865 2 0 18 586 743 
1866 2 0 104 949 586 
1867 2 0 126 743 949 
1868 2 0 586 949 743 
1869 2 0 152 947 946 
1870 2 0 126 949 947 
1871 2 0 104 946 949 
1872 2 0 947 949 946 
1873 2 0 39 950 945 
1874 2 0 153 951 950 
1875 2 0 152 945 951 
1876 2 0 950 951 945 
1877 2 0 40 565 953 
1878 2 0 98 952 565 
1879 2 0 153 953 952 
1880 2 0 565 952 953 
1881 2 0 17 948 561 
1882 2 0 152 954 948 
1883 2 0 98 561 954 
1884 2 0 948 954 561 
1885 2 0 153 952 951 
1886 2 0 98 954 952 
1887 2 0 152 951 954 
1888 2 0 952 954 951 
1889 2 0 39 584 956 
1890 2 0 103 955 584 
1891 2 0 154 956 955 
1892 2 0 584 955 956 
1893 2 0 24 859 580 
1894 2 0 136 957 859 
1895 2 0 103 580 957 
1896 2 0 859 957 580 
1897 2 0 25 958 862 
1898 2 0 154 959 958 
1899 2 0 136 862 959 
1900 2 0 958 959 862 
1901 2 0 103 957 955 
1902 2 0 136 959 957 
1903 2 0 154 955 959 
1904 2 0 957 959 955 
1905 2 0 40 953 563 
1906 2 0 153 960 953 
1907 2 0 99 563 960 
1908 2 0 953 960 563 
1909 2 0 39 956 950 
1910 2 0 154 961 956 
1911 2 0 153 950 961 
1912 2 0 956 961 950 
1913 2 0 25 567 958 
1914 2 0 99 962 567 
1915 2 0 154 958 962 
1916 2 0 567 962 958 
1917 2 0 153 961 960 
1918 2 0 154 962 961 
1919 2 0 99 960 962 
1920 2 0 961 962 960 
$EndElements
